"","friendliness","aggressiveness","adopt","emotion"
"1",0.888487490968304,-1.48174355935264,1.0929976409433,-0.728352371419155
"2",0.0873694015718907,0.924722183034966,1.06013372280962,-0.0139668206723086
"3",-0.530003754460871,-0.942544444525826,-0.186435908881681,-1.17000342098432
"4",1.60529261222819,-0.761992094710366,0.242070023078066,0.183417546174401
"5",-0.751038664146059,-1.15056070661884,1.37044413300435,-0.975237054456209
"6",-1.53402535731007,0.662427745861984,0.761702885678841,1.47795463223381
"7",1.26012579446533,-1.15847594252179,1.26812851613687,0.614866941396795
"8",-1.62609491512227,0.557919925415282,-1.18720968432917,-0.026673233461723
"9",1.2491769366406,-1.41766520564068,1.55100480037237,1.60220439010741
"10",-0.802204950644397,1.15634269564337,-1.47404519052389,-0.658532786695773
"11",0.788406506434162,-0.701919865345425,-0.310367529830177,1.60285940375231
"12",1.93613327821007,-2.20275515883645,2.38236514346305,0.924126087993369
"13",0.257751229424027,0.611356081373608,-0.908382205111485,-0.0894506669733696
"14",1.45969640360767,1.0012007692682,-0.497282595791903,1.36677568171178
"15",-0.569573333363582,1.17748734530861,0.544059194199379,-1.12262990574647
"16",1.06121929511766,-1.15139647822863,-0.161372967866342,0.403631918013007
"17",1.55591385392207,-1.4136917157766,-0.434982211924908,-0.330916473847217
"18",-1.77958704118607,0.675517922848837,-2.81279704812738,-1.58346762308756
"19",-0.326884817736444,0.0225410478770125,-1.35492978735231,-0.362093604053183
"20",0.0564388071253748,0.559780563100101,1.05347304846947,-1.30929463497576
"21",-0.169980193733708,0.829754116052048,-0.525698794895685,-1.4580444594251
"22",1.21945433529563,0.326441275043335,0.801132426774605,0.483969048286166
"23",-0.302413991372939,-0.463834705155205,0.0329698386847892,0.793329314196022
"24",-0.313529763296967,-1.69177709156505,0.742642309393217,1.13833300762421
"25",1.20278835844526,-0.695206318045179,1.05842662804733,2.0361005595973
"26",-0.209954794768283,0.558342146687156,0.684040872952109,-1.05666369612962
"27",1.02417291843621,0.721379663490077,-0.487717156435971,0.864803394813691
"28",0.40192578754252,1.66957923593892,-1.67959066075403,-1.36146114826066
"29",-0.815464165716477,-0.12218388772054,-1.09959853749986,-0.678023457218905
"30",-1.44115657920334,-0.357927077297187,0.413605415588091,0.319785246400063
"31",-0.118998076482759,-0.766569881215027,-1.15691839997421,1.02051015358421
"32",-0.668558186702272,-0.784485855573922,0.282507233680666,-0.711311667235523
"33",1.24145091339318,-0.810721385959803,0.105797869876331,1.20634039813977
"34",1.96474416846457,-1.35897410824794,-0.109806508087337,-0.750700503795509
"35",0.258209972522033,-1.4060820700855,-0.0834856534610789,-0.556644231047114
"36",0.312478019364767,0.62863361275451,-0.431508030999827,-0.533421986690946
"37",0.853433120786002,1.2885605180093,0.760510847845264,-0.345689093799677
"38",-0.479347630558001,1.66924438660032,0.0325803219084204,0.620674496405184
"39",-1.7535410221495,0.72274457213836,-0.701150557901169,-0.012681921678435
"40",-0.608588872554025,0.557111878361338,-0.479047371374079,-0.0544908327210563
"41",0.466013227084392,0.351225684969237,-1.241644946073,-0.751482949527024
"42",-0.230139510079861,-0.752840164723642,-0.964437099471005,0.683232666548152
"43",-0.971574951748575,0.415558078417228,-0.849269563886153,-1.17337472752818
"44",-1.18944675472988,1.02358639662209,-0.117577764535687,-1.08025333110785
"45",-0.578335959614325,0.561131938687258,-0.314495300053498,-1.55702172037287
"46",0.591587899592626,0.366793332919285,1.49758621010715,-0.493160827342283
"47",-0.385726038808677,-1.6407024727323,-1.11041399711141,-0.164327789462561
"48",0.579058111210492,-0.429537902637571,2.24929578636342,2.46238767084568
"49",-0.188605775650426,0.865192526123357,-0.561591875071427,-1.52249456684642
"50",0.133414154180693,0.322403599849854,-1.34193068063751,-0.981413666797493
"51",0.694563734965729,-0.153122639077527,0.0557195688972369,0.829849160312743
"52",-1.10925876683207,-0.470629436533411,-0.769778003263727,-0.547102492631756
"53",2.02954767504631,-0.00323812106704684,0.738227944589091,-0.0939953652411206
"54",1.25051442936979,-0.803201196266416,-1.21570554916629,0.304450075335773
"55",-0.52076416494145,0.0207055555501291,-0.592014464401097,-0.631167806809651
"56",0.370474249887157,1.00913763325556,1.1345234723751,-2.00104166830428
"57",0.532538535347623,-0.748060442538846,0.962594569035489,0.314766476207853
"58",0.234712603341555,-0.310818285642423,-1.0425300835439,0.536986706226321
"60",0.719970512386297,1.06482966903295,0.953378885467431,0.518342713799759
"61",0.423974842944698,-0.646708634827401,0.871830377544233,-0.282209475684129
"62",-1.03270652391734,0.378721313447619,-0.544463285364966,0.786580259594374
"63",-0.117651220243904,1.33305832907854,1.34274752442129,-0.117045877089804
"64",1.0362365397448,-1.40298106885464,0.898473707956601,2.09264195984733
"65",1.36509695936362,0.187441297535778,0.343398015517878,-0.359479361617674
"66",1.63991380132126,-0.973701667702807,1.78116213895105,1.38041040666627
"67",1.60917480431528,0.795125606545667,0.164166821841642,-0.305322896553445
"68",1.42737394192783,-1.02585332306698,0.96567676358344,0.728860242909349
"69",1.26229499609137,-0.576724140122933,0.786339525022298,0.150734385465964
"70",-0.0812765017766296,-0.82113076467939,-0.759941002470402,0.505115722972707
"71",-0.0859668541609778,-0.205390871824989,-0.522031230303987,0.237298770104221
"72",-1.09327137256487,0.710795879775162,-0.290027555919469,-0.0580319359303823
"73",1.51965393180029,-1.11179657307738,-0.187162301391113,1.33079560225006
"74",-0.208730196801342,-1.16349491992903,0.836362610319783,1.39385208774942
"75",-1.22222890448028,0.32690098673142,0.347562518282493,-0.489233832177463
"76",0.314229221085769,-1.13259991074036,1.00842925491728,0.920985143359575
"77",0.846140583267614,1.52845265679532,0.599050640777709,2.07855524195957
"78",0.0669315942321684,-1.79528118643213,1.42228478137998,1.19989038543742
"79",-0.261784334869969,0.985409759064999,-1.56327369918082,-0.552524160644549
"80",0.602321408002849,1.17664239077228,0.1691018912575,-1.48929400223992
"81",-0.911159805933745,-1.3398646453806,0.383775855241268,0.830842506530166
"82",-0.271820483179458,-0.67841227910573,-2.46913024553428,0.025631247386609
"83",0.48273975241894,-0.278219045376538,0.446274429637899,0.531921938411939
"84",-0.473595408073326,0.0479715420917515,0.997888636625029,1.75310061522957
"85",-0.250664202412503,1.41478572123022,-0.499256474222908,0.0885606056452563
"86",0.995514145237361,-0.251186818321984,-1.169992212658,0.95702061141618
"87",-0.862425519567133,0.9292613529085,-0.0253153325483849,-0.990094838221298
"88",-0.846038399944223,0.610084031525053,0.807523974306564,-0.462114484026744
"89",-0.433489641426925,-2.32639048204929,0.310033787028471,0.236678205815169
"90",1.27524326894216,-1.41416014696117,0.82412273255433,0.446135776997835
"91",1.52752843750536,0.538238214425741,1.76217679052748,-0.109441723298197
"92",0.342363544661929,-1.72664288322417,-0.105621029722803,-0.858167263344141
"93",0.0395392666852089,0.498425166100218,0.855163614143659,0.835421935222545
"94",0.950649708735868,-0.470852559743194,0.46096669673054,1.03521905584779
"95",-0.167917546803924,0.939588693216292,-0.673505251441005,0.833499586054757
"96",-0.559285924192165,-0.057835454893673,-0.426439698662372,-0.160882413571751
"97",-0.299515065340701,1.28276264698564,-0.762331448842001,-1.12795050535263
"98",-1.20619704995699,0.642452538916498,-1.5640144964466,-0.783309612517266
"99",1.933318284976,-0.472114200529219,1.42706028409175,0.453528862059506
"100",0.357650832782675,0.666355341749295,-1.35156575465247,-0.686287612207409
"101",1.62847992998399,-1.07686074306241,0.332228503687013,0.510354708941431
"102",2.82898310434666,-0.277492305876019,0.4629944447596,1.94654435838294
"103",0.973306083467306,-0.329679044451934,-1.45015051666716,0.462449011459035
"104",1.44808787905676,-0.932858943891234,1.66066452239718,0.126651223078034
"105",0.536031271080634,0.121989192544751,0.294924624078852,-1.54619691313057
"106",0.364541295056076,-1.11137029529122,1.58804203353791,0.512085744866878
"107",-1.67973504633999,-0.149709059516672,0.37774604892935,-0.253628290001943
"108",0.437510480323105,0.0917290750886739,-0.862976110245853,-0.414543881892924
"109",0.960718155215714,-0.980447391958326,0.492538898811404,-0.322647516061026
"110",3.03783893404904,-1.63798320380751,-0.793884088550589,0.903341473456409
"111",-0.426182592474661,0.186157185317809,-0.577891518864741,-0.960740553160866
"112",0.400376608466091,0.136767595107733,0.620326442456248,0.322969994667209
"113",0.305672031858635,-0.847923362843377,-0.680840846889342,-1.15969722424821
"114",-1.1827130633095,-0.341195837651458,0.684228184910568,0.120108897094798
"115",-0.547000255137286,0.300798106453257,0.286347783457809,-2.17073918623581
"116",0.748546356606705,0.892733813932612,-0.568216964561656,0.161328825276509
"117",0.0722611012847476,0.191725519216693,-0.299754769722782,-0.847175675812511
"118",0.704198360804392,-0.284102242035076,0.345462873065059,1.14737028252503
"119",-0.921163348490548,-0.0472346380606915,-1.22567872765267,-2.76455300538178
"120",-1.47628269250635,-0.809598796250153,0.109594413769336,1.18146680298301
"121",-1.73102330074992,0.722432591088026,0.239851820173243,-1.01311262043355
"122",-1.47312031995176,2.16480815272488,0.396867358204454,0.457762129862708
"123",0.133490054782446,2.22110292728981,-0.861027688575438,-0.0704308076916623
"124",-0.33881680539976,0.921544112945407,-0.435137972537787,-1.20168125242206
"125",-0.0821844423757907,0.0328549031702447,-0.00204440375464094,0.458221852245751
"126",0.230443239080563,-0.169941833322649,-0.890581396832167,-0.203286016936931
"127",-0.252898274187732,-0.861164374601396,-1.52957730783503,0.973434473336878
"128",-2.11223849445794,0.774372741656138,-0.560260768160486,-1.25084517891285
"129",-0.359074478570291,0.493394785277906,-1.0410437507828,-1.48343353480909
"130",1.27974371169628,-1.02042089874106,-0.567034532946683,0.493936547425631
"131",1.50447405085622,-0.54738148807652,-0.492470862491887,0.121898635157927
"132",-0.396081217063037,0.500876332458835,-0.55399744880395,-1.63272395679995
"133",0.288283885844618,0.818944141201247,-0.900101113254856,-0.559703697145075
"134",1.58499687348481,-1.41352790687505,0.73623454324773,0.448349736725806
"135",2.39322277783131,-1.94046930669,0.424302440885727,1.18994902381683
"136",1.72528975140897,1.61255212765701,-0.425251770004496,0.349558323722701
"137",-1.33844467288625,0.326050641385923,-0.256760818960342,-0.349016025040801
"138",0.45799941848176,0.375761234139765,1.24561935490995,-0.723012818628636
"139",1.57976239086103,1.04370671694557,-0.866368876366152,0.81161128761275
"140",0.41002369048519,-1.13516803234953,-0.0415685210502627,0.424238611735061
"141",0.503370289618528,-0.326736533186591,1.01965110377732,0.401450219400972
"142",-0.258666062726974,1.43878196228832,-1.08366578948789,-1.17375460170631
"143",-0.625670080205739,0.908608623105258,-0.263870638001978,-0.15300997626395
"144",2.04265915656996,0.726477421229455,1.09304417380384,0.0171321845415304
"145",0.0260547601971535,-1.24838480495058,0.895240783779163,0.884037682881476
"146",0.875222052435538,-1.32311798811134,0.228134449923799,0.278181633270935
"147",1.93218394946787,-0.478926976296878,0.146074855077173,-1.34267295834049
"148",0.768985912099844,0.240064455140027,0.0387240805879476,-1.45196121162049
"149",-0.385204645581551,0.0673498119906913,-0.64790565693096,-0.0727874674285229
"150",-2.98410912576321,0.481560376398651,-0.728101944011328,-0.354241561671707
"151",-0.248428592875534,-0.0761501609351095,-0.0437160690001511,-0.528091544227621
"152",-1.24951586575925,0.893669883566592,-1.44607931132262,-2.306425739275
"153",-0.081472286018783,-0.646723623325472,-0.537504892698305,2.40166814395804
"154",-0.854670466328815,0.501117862610641,-0.467827849009684,0.990489236527067
"155",0.33325416605296,1.01078946742661,0.228394661634471,-1.67486189557466
"156",1.21911675161319,2.14457048021917,0.585165033575248,-0.781693503641803
"157",-0.880816478955234,-0.943374670340618,0.0355000451036564,0.847357797516413
"158",-0.379156856480841,0.111018048017527,-0.542545770486201,0.477300778325183
"159",-1.15130953437016,-1.46810726388496,-1.1709617183113,-0.821532427642787
"160",-0.255751687957066,-0.292091861847276,1.51689762940394,2.2848513492564
"161",0.722193025941993,-1.44874072735455,1.34357493118047,0.454974781392539
"162",0.455040998148188,-0.465853190362134,0.65271715517422,-1.22443300214785
"163",0.404878362490151,-1.21611978258543,0.681593542342591,-0.187085268454602
"164",-0.487035082728722,0.719460466768113,0.840837075489979,-0.969677175118749
"165",-0.109268498466274,-0.1391662238035,-1.03705463785732,-0.0755287388758245
"166",1.39568102358469,-1.16046519272793,0.18691051342007,2.4603146964675
"167",-0.143868281135001,1.02075318170517,-0.0500365054547839,-0.585372188895351
"168",1.09140435772569,-1.47144147187249,2.64482567376985,2.20173859477756
"169",-0.182850022599275,0.746260815465442,-1.01880486578736,-1.83182437814977
"170",0.724086351069967,-2.22200525398387,0.0614946865226004,-0.981671719032829
"171",-0.593087386923083,-0.551875571493399,0.644655611328493,0.44341176082632
"172",-0.857426737598241,-0.193229570566337,-0.657466038151526,-0.274796433713155
"173",-0.155878550047356,1.2705423317521,-0.642954523678158,-0.388407523523842
"174",0.618084015322289,-0.761142429093553,2.07036433463733,-0.0387751972163275
"175",-0.128029766333551,-0.578560200946486,0.0119038993448117,0.451735358135037
"176",-1.63025317380454,-0.0863334758187607,0.208025468890049,-1.84917797847816
"177",-0.0474777708762995,1.85985516143302,-0.0258472736297748,-0.424809609654016
"178",1.01265147483085,-0.419217970760455,1.39780783412273,1.09122637929909
"179",-0.228796575063168,0.514695810744552,-0.2974691504087,0.857341855272317
"180",1.67327055842277,-0.0740155356598998,0.707801041238875,-0.689813931240557
"181",0.878837730148477,0.994787363344783,1.17864054726413,0.550004481095627
"182",-0.584835808991754,-0.424956249931878,-2.70310021761303,-0.933257362628491
"183",-1.4990531800584,0.222406030484866,-0.666717574484996,-0.198416559860593
"184",0.913333349130947,0.227576198902723,-0.0622800119019012,0.609407546350464
"185",0.557098545159407,-0.159521912540555,0.221183053070324,-1.36979283625813
"186",0.699091776071686,0.0581191004064632,0.110250455291736,0.697703316330096
"187",1.00456434057306,-0.793504356279296,-0.937526123670062,0.293782034793338
"188",-0.349475510249097,0.017780135377349,0.892849707356558,0.422952861022021
"189",1.66657607803098,-0.36849832740971,0.365260215184057,-0.897531721317265
"190",-0.47940972870733,0.674516793184135,1.07644512474911,0.932009181065719
"191",0.959634830978863,-0.692569599767323,0.564656832901044,1.26102383536721
"192",-0.595624551635993,-0.178082376397059,1.14608510906003,-0.0686422761751398
"193",-0.74643624203934,-0.175794083501628,0.303170261478836,0.502121101095593
"194",-0.597382947293226,-0.281538105282998,0.178659663520539,-0.144878202989715
"195",-1.03250201047181,-1.15104035813604,1.40915823242643,-0.620345342612025
"196",0.206998075327113,0.249062919832979,0.688928201663978,1.08519438165248
"197",0.646649425295313,0.686520620231229,2.17225659486354,0.976941191223746
"199",0.592144352519534,-2.44402681171631,0.950068363369005,1.46421948140487
"200",0.257667140478069,-0.469062812858068,-0.623121854922181,-1.25088816777778
"201",-1.88322439148594,0.212938727879733,-0.44742667549127,0.105408095038932
"202",-0.539100364011853,0.439022989677258,0.132521970875649,-0.223984681390662
"203",0.794914429150736,0.592976330268227,0.450895059046846,-0.410158437982173
"204",0.835243933745489,-2.970046342916,1.41668246391838,2.50252971214755
"205",-1.46029847594196,-0.243144060420945,-0.880994399724324,0.596857640759151
"206",0.482602466370421,0.645533936771944,-0.941533067849231,0.598490945810983
"207",0.989571736508602,-0.977233039770732,-0.542412983694375,0.47316668965135
"208",-0.129203408935698,-0.440958357489834,-0.00250183537645877,-1.74197443345496
"209",-0.957465480347252,-0.826022543742581,-1.6805838989008,-1.11797458978759
"210",0.0823563107719134,0.982853552455946,0.249645132232141,-1.11393700033666
"211",-0.457871490881114,1.51693790225334,-0.844913704089942,-2.36903706257506
"212",0.782919529951118,-0.456948460222827,1.42101695520839,-0.561232636471264
"213",-0.121945404337996,0.0108772693467432,0.992830744854045,0.937405136110383
"214",0.718904810279725,0.728863823619012,-1.02353141650411,1.32793664093343
"215",1.66045300810347,0.603251727387291,0.144758181253222,0.776071907917044
"216",0.294192966538683,-0.144963539582286,-0.307266394933251,0.303431209630142
"217",-1.39143492386248,0.707108765029731,1.16820748853842,-0.375651695935846
"218",1.01997567049451,-1.4896079276475,1.61565452706448,-0.449096595813175
"219",-2.14475673699602,-0.545136406593881,-0.644782326856862,-0.25379579492918
"220",-0.00755209930404429,2.60708400716446,-0.881264099970762,0.0437238545602815
"221",0.329125623757118,-0.741572080666551,-0.410566789804679,-0.711177321754616
"222",0.546885602529889,-0.0895619898506916,1.23376140850811,-0.103638085681736
"223",0.439209500649203,-0.370310343594669,-0.782912441732574,0.104534171783056
"224",1.04690179807497,1.47802864528283,-0.245371842821227,-2.49329482616578
"225",-0.642553667698527,2.56493098972408,0.263526184574991,-0.184023299473995
"226",-1.52784243346742,-0.495459068330694,-1.37079506632202,0.40391587179339
"227",-0.744411793679239,0.0830251436637087,-0.592577784880641,1.10874605625913
"228",0.416473670239004,1.05615826223756,0.835831453515051,-0.994839787574701
"229",0.627040637936545,-1.13254855578395,1.46673203214941,-0.238452653273183
"230",2.01079520825886,-0.0546397050991447,1.43012983527257,0.159201759229021
"231",-0.605086925920133,0.890967217452489,-2.24823082679849,-1.28727214456337
"232",0.712791046613153,-0.547911563244888,0.307059060126163,0.471885669718969
"233",-0.593204733492988,-0.632426726984485,-1.7572346275474,-2.99980215477377
"234",-1.68853878045445,0.184167774703581,-0.719753692821441,-1.94830338988788
"235",-1.20170507859483,0.859480021534724,-0.0384790678319674,1.33434765881392
"236",-0.260658029902138,-0.288979348949106,-0.84432206539058,-1.70142006488115
"237",-0.779837810106436,-1.01273419838318,0.299893681429162,0.0391154569781668
"238",-0.446087079744588,0.458091589904066,-0.675686847195479,-0.16805829097983
"239",-0.466560853152411,-0.283505481284393,0.818980619520517,0.696842413738466
"240",-0.691911309682374,2.18107821707206,-0.354221667699385,-0.188346175969952
"241",-1.92888753538198,0.8398278332885,-0.762853956427652,-1.54751161231679
"242",1.08243744720434,-1.02074662385292,1.2931949841538,0.104908131447486
"243",-0.523117486340022,-0.316012466911648,0.241487579447777,1.23934515498118
"244",1.4080397086433,0.387291812164374,-0.00237668404836192,-1.02235917980744
"245",-0.423822187006048,1.72962171799916,-0.975723671308395,-0.157712467747951
"246",-0.218626158906997,-0.676032777128028,-0.136767826925356,1.63847605283104
"247",-0.253318017919117,-1.15404412314234,0.752357689452022,0.572856366249541
"248",-0.355216448465863,0.730333173823405,-1.0257957801171,-0.737333246409325
"249",0.904193407294458,-0.905482045740019,0.521710683324609,0.993358375816627
"250",-1.40150731061365,-0.375898161539741,-0.776478290610625,-1.32557996747788
"251",-1.00869369726654,-0.144527664804486,-2.71355661603796,-1.85170776968206
"252",-0.613598946017439,-0.169709945717935,-1.25230162485291,-0.222941743749917
"253",0.794943855748951,1.78714523669104,-0.617966764294465,-1.72423417895534
"254",-0.234098979194563,-0.149967808098897,0.582720367031189,1.94335113355899
"255",1.05071688632251,-0.195678985350964,-0.0410284509657408,0.859074648683717
"256",-0.459314676119885,0.500019108604098,-0.37715010566058,0.311928322197478
"257",-0.527075034419614,1.36266648796332,-0.359247773550191,-0.592089798284821
"258",0.0481160265144267,-1.25322762870813,0.920238181312245,-1.90781334521814
"259",-1.16638570264835,-0.743476937173158,1.40876970526838,-0.438713807221544
"260",-1.5407926958364,-0.159567004282978,-0.486420983958316,-0.436702610405005
"261",1.1016353925778,-1.45292989834683,1.45752661375796,0.946174402260466
"262",1.22047567920986,0.225370010626202,-0.0993145479056408,0.179200229007267
"263",0.327763631088209,-0.569337437731521,0.00193323378557131,0.514597899948786
"264",-0.834900596897205,-0.398522441703865,-0.890228003299331,0.397663274039966
"265",1.27802287912941,-0.308941035135991,1.13841732443445,0.50032766762704
"266",0.258497065898812,-0.703050220449286,0.0164583766504019,1.05731537525556
"267",1.03916534875004,-0.324875838746268,0.903649357642866,0.533617961850351
"268",-0.227542481289139,-1.4950844759003,0.951997508461562,0.610118512351965
"269",-1.1229153125258,1.51225362531865,-2.73520898338179,-0.520938376933659
"270",0.487078615132904,0.225230381459945,0.823358788565078,0.320571086994357
"271",0.0907596939707511,-0.25681399366031,-1.60412546072791,0.942222138088925
"272",-0.675862698869797,1.53302836831237,0.665774964149585,-0.678733425649915
"273",-1.19846719463101,2.24366974303258,-0.71021944769766,-0.922221464893878
"274",-0.142632331403399,1.21274237627912,1.09333502495342,0.218565448569643
"275",0.268095743519664,1.85160893478251,0.178900982349436,0.376559930959904
"276",0.97795614633966,-1.34539525197254,1.19138080973457,2.21239602349533
"277",0.930119287626021,0.790379429230101,0.0886039221889192,-0.669015952324008
"278",-1.23546028617408,0.879581540281773,-1.91230869284287,0.204689527128553
"279",0.234368652418333,-3.16231179838828,0.364794383766185,1.84521035184021
"280",2.05517233088411,-0.04964882689719,0.276640191299139,0.518971335694518
"281",0.690530279060775,-1.03762867106275,-0.0271750875943038,0.642256412929159
"282",-1.27658300550712,-0.259228256318869,0.0611592113283224,0.12762103425898
"283",0.967560182286944,-0.338412153225562,0.798878274899082,0.737374034430055
"284",0.672698529601512,-1.01056032185241,-0.321050770652591,-0.0213994067934644
"285",-0.378275959689829,0.885685776258794,-0.0071308855047599,0.325362120307104
"286",-0.337041362072596,1.10628790202936,0.813840703196833,-0.920657197999643
"287",2.32408973005213,0.998653722763796,0.658482577406755,0.544211839791723
"288",-0.344849518015429,0.157015058265013,-0.11132345240221,-1.97786983194454
"289",-0.893811414239856,3.53149319978212,-0.460120478977342,-0.577586481360281
"290",0.576134419965834,-0.485354706127838,0.734507554239011,0.567921293685235
"291",0.634324265537425,-0.52399901134976,0.995016902717652,0.0484782249277915
"292",0.271800853711888,-0.791939593800228,-0.532359168933536,0.526455327797318
"293",-0.591042170767936,-0.0169014376581222,-1.12564829337577,-0.565237144942664
"294",2.15548453152886,-0.736337570139177,0.678814981791386,0.866077572081412
"295",0.120087569223817,-0.062616223641734,0.256537319063652,0.163092871377065
"296",-0.122538577602425,0.30309137545751,-0.342924299866655,-0.715592020782551
"297",-0.659342506617703,1.86369172339641,-0.192483768924977,-1.00356426538082
"298",1.33946146521033,0.638577311474449,0.564630314547623,0.8115569745923
"299",-1.20419350284092,-0.923862466311143,0.270250729600278,1.04242322878029
"300",-1.3269539597099,0.575282541884392,-1.44924109644141,-1.88846897760764
"301",-1.18969347559962,0.180662446062663,-1.56875027394862,0.976145817878809
"302",0.326851251365561,-0.180786588081591,-0.521240201175834,0.373632532771179
"303",-0.60174769723904,0.137515952442064,0.0697823584268979,-0.704693537808374
"304",-0.348445007937786,-0.609938473556642,0.0101505039649981,-0.625912296966915
"305",-1.74683925487816,0.204880178842305,-1.2625734102588,-1.74262671376167
"306",-0.246956529913956,-0.658884386854166,-1.03658257980388,-0.0418636668290418
"307",0.0285639661874932,-1.05164853656199,-0.654740369311632,2.64839593605925
"308",0.587529014097249,-0.694174392557904,0.97948172958323,0.419835863953021
"309",-0.242443342681665,-0.769861642433914,0.6168411631773,1.35262580290382
"310",-0.130665525390201,-0.415112481009495,0.118503227547725,-1.48548868088096
"311",-1.18660389720838,1.53183119126014,0.634158292556712,0.140366448298979
"312",-1.36976121148206,-0.384555801982613,0.477656367123698,-0.110754302900268
"313",-0.57316031989644,0.0658108995697701,0.897288375566286,-0.482878995522991
"314",1.47333951530857,-0.818030948256034,0.232273444078556,0.253766021071051
"315",1.80464609852551,-1.45226913214971,0.932109744720141,0.876210069406584
"316",-0.355488888534478,-0.437697581959976,0.807089996490557,1.32846611541511
"317",0.632357573180597,0.621703614675828,-0.236540208644362,-0.725134747984902
"318",-0.817870289991241,-0.249273451975191,-0.47694279336124,0.600360601321242
"319",-0.263502223026774,2.13699645226745,-0.957386978830896,-1.21218309664574
"320",2.10582034014956,-1.84347868055031,0.817709224979296,1.44377386124233
"321",-0.0548620456280158,0.127185035982031,-0.337733568362042,-0.354236985675772
"322",-0.301327444611243,-0.276792342021039,-1.20081249336567,0.451755144935616
"323",0.651516740082845,0.250764073801757,-0.346833134582413,-0.451226955984781
"324",0.207514995773981,0.350916984119837,-1.32793894480564,-0.0486941714716403
"325",1.74397525910527,-0.249367119789561,0.638417068924245,1.2346372867454
"326",0.265447845535425,0.767223500304364,-1.10096148731171,-1.07222149658837
"327",0.648099486903172,0.781248541289323,1.10644239671214,-0.633819480257781
"328",1.47470262981058,-0.815432377720564,1.69100758184583,-0.0598494816288162
"329",0.0419719725934316,-0.247143914366647,-0.78415183096983,0.162708966709912
"330",-0.113720392768876,-0.950088674374977,0.216700781397248,1.28142932314702
"331",0.454732865361038,-0.528214760302781,-0.497072914107043,0.0456877764354498
"332",-0.129259349734758,0.977860173975868,0.147277911560671,0.841166985481649
"333",0.918765474344541,0.566989148606379,0.115648609323376,0.63682308198015
"334",-0.347956310770118,-0.165092989281212,1.64174302624665,0.812365127453534
"335",0.898089612044506,0.198775511420409,1.36954895929647,1.59098030571451
"336",-0.663433773858721,1.15854600043488,-1.05625536938554,0.20586347705426
"337",0.917434427268253,2.136089709916,-1.78150808210773,1.4352755162745
"338",-1.61986016278822,-0.610344369769188,-0.886143604676464,-0.144589114797561
"339",-0.903867165900838,-1.42336417423341,-1.48624736499945,-0.230041551366666
"340",-0.0906847162054346,-0.590216229689171,-1.69949487659282,-1.5107116456266
"341",0.670260353459528,-0.951944202293161,1.62959576839826,0.965551849701057
"342",-0.0292548543594174,0.646025932386621,1.76242327652794,0.776128584145252
"343",-0.216350691905182,0.641887947151301,0.25918221990719,-0.173762658048012
"344",0.828507753532272,-0.62162834139798,0.120106073427498,-1.0993867809393
"345",-1.26264823057267,-1.00063960186696,-0.0716539892187301,0.393915166966093
"346",-0.771145658506047,-0.467856990689043,0.113769827162022,0.920581118724024
"347",1.37697306703392,-1.14451623735116,0.60426849501199,0.960606694577566
"348",-1.51642674889735,0.0166207669022333,-1.51086331543036,-0.959032217193849
"349",0.429794195013381,0.528688812309423,-1.05422559863592,0.170329179200942
"350",-1.16654606801072,0.70462992383712,0.950739740833799,0.0637056941102825
"351",-0.641560105755457,-1.38819323707722,-0.664002521575648,0.193002585580671
"352",0.323098355534778,1.55579047534211,0.249192496539843,0.760696812096609
"353",1.88096195843372,0.636314081262579,0.918186016596997,0.398115485756156
"354",0.702056017642838,-0.0414405552693188,-0.819731247655776,0.320028235120122
"355",1.27518341492989,-0.229213368364916,0.318613580779057,0.175427111935878
"356",0.684608902204687,-0.907381383188302,1.44465556604712,1.63685251839998
"357",0.109779163917413,1.21506340582258,-0.49309325894405,-1.21895734330636
"358",3.19126568244981,-0.654120226966353,0.877536164157437,1.71219269003698
"359",-0.0361662796739331,0.332116586413594,0.355383216098143,-1.53714284497921
"360",-1.62078974438619,1.89661876337452,-0.8989308905446,-0.193561370673663
"361",0.613275949840857,-1.69721802594056,0.122604354034356,0.149533212772638
"362",0.875632433531622,-0.341384730324791,-1.9634363544592,-0.757130716963587
"363",-1.29349424480363,-0.522083503873832,1.06987852646481,1.62209351930851
"364",-1.08945429291242,1.71093289561035,0.295775308095281,1.00992596570116
"365",-0.616054969730586,0.46317694488467,-0.273611332540217,-0.48261901686679
"366",-1.38126828815353,0.525057317290959,-0.506491774399573,-0.817961123530936
"367",2.2690755158923,-1.13080963007909,0.933817450398676,0.980514975390949
"368",-0.901928939336783,0.422693892323243,-0.579459476372011,-1.98057220141744
"369",1.30227158827709,-0.0941486575876587,-0.738519659623836,-0.0408886733052416
"370",-0.687202860666437,1.53572449202438,0.819899647939284,0.709974774650443
"371",0.752084628483218,-0.64595287213285,1.01921744130544,3.28139634463685
"372",-0.470381933775,-1.10540880824469,-0.197051912736427,1.07530565580339
"373",1.30893512691536,0.215629400436953,-0.236790199261753,-0.368792519914256
"374",-0.119078597941025,2.70293428745124,0.692441063446886,-1.91984134973016
"375",0.717658689883032,-0.822875977465722,1.10063449198507,-0.0510094979282793
"376",0.977382803952195,0.276240156129736,0.338459317583445,0.329833951825413
"377",-0.951189370592996,-0.335485911185394,-0.362121994281617,0.258764582209823
"378",-0.158682573443734,-0.347009779948433,-1.4009344235805,-1.68567196836699
"379",1.17349196071473,-0.760448790967779,0.684016107020399,-0.0415759900856557
"380",1.0821366403471,-1.45297808413999,0.65607377670837,2.31589766058612
"381",1.3309033319965,-2.22605071204772,1.37806715527287,1.73975134297225
"382",0.407063626231732,1.62743840415696,-0.690303303811818,-0.105182948895669
"383",1.6752412478517,-1.68401446815016,-0.573409067319797,-0.335179669227191
"384",0.904685050789247,0.108669255791095,0.657483949530474,0.300113240310649
"385",-0.543499774269077,-0.397188861891273,-0.175461395323035,-0.929513563914211
"386",0.704785983588736,-0.848665049515506,0.776575005629914,1.37954323014127
"387",-0.803142645011265,0.972433456293315,-1.24173840679978,-1.80044031968301
"388",-0.0983797823786466,-1.58435432263414,0.0773210596913077,1.07364184420861
"389",1.8038640838554,-0.983950946661025,-0.313267781367313,1.30708361791934
"390",0.924801921059756,0.777564493207877,0.613348649764895,0.0586625297817644
"391",-0.214051631546878,-0.830167235144637,-0.324899160800473,0.725286871053532
"392",0.556247731150731,0.714728118492555,-1.7518047992464,0.29849893503103
"393",1.33767087361239,-0.897148104705594,1.49889383491952,0.0356208516260174
"394",-0.658750827740282,-0.40618779438824,-0.964584012654896,-1.0972474610116
"395",0.277690069683301,-0.868334226810718,-0.917656034404542,-0.594944863087511
"396",1.04530316824789,-1.0681531369239,0.842795413847603,-0.977182849551725
"397",0.0404882928594739,0.914301573401029,0.255541567353971,1.04188807307985
"398",0.738287023609138,0.758736584962077,1.14594165293104,-0.255136721039048
"399",-1.72313805889002,1.04602439053302,-0.947472370489073,-1.38856458521309
"400",2.39050532261053,-0.689948020697904,1.10985826135227,0.195904448441938
"401",0.809051181445702,-0.463279199901383,2.03561857410782,-0.715639570692645
"402",0.211482235253752,0.881228409431405,0.0593671842581994,0.83420514568384
"403",0.452371875855173,-0.0660281689174962,0.78926668214224,0.0346609643467778
"404",-0.214014453609903,-0.676783437402561,1.44455524546005,0.0234011037403087
"405",-0.992910581128319,1.47536138061453,-1.03421185514539,-2.65504984197609
"406",0.609774302575568,0.296967793419918,-0.661674960958929,-0.401836840386538
"407",-0.287895630746209,0.266914494120048,-0.836260632098084,-1.01061090205671
"408",-0.360995615514266,0.228056712976583,0.570043399272499,0.992643332272347
"409",1.32585786170464,-1.12863979739056,0.583825780821448,0.0537947566024051
"410",0.251324145141773,0.619454120734478,-0.319925690542423,-0.617314687809233
"411",-0.190676028980803,0.17996481041774,-0.403333805887189,-0.990177036316286
"412",-0.46293473784997,0.823358609833566,-0.979646479083804,-1.5911365709163
"413",-0.688343021069252,0.141414724977789,-0.122528965254538,-1.09599666394423
"414",-0.8094210961511,1.2609368663354,-0.10358319974883,-0.652645501385613
"415",-1.97665505075538,0.886540049046934,0.0684870041719641,-1.09075344771096
"416",-1.33515601896415,0.59444479023447,-0.504486228609534,-0.976012793574003
"417",-0.853559576493175,0.0523747274276274,-1.13677372146539,-2.06765727191596
"418",-0.667480473046389,0.538834697554741,-0.718810663829408,0.140342398684994
"419",0.00806847632583968,0.262670867377512,-0.498303863960627,0.465514936627881
"420",0.2939391151522,-1.1053130150587,1.99068671209148,1.52637319454805
"421",0.503084037428298,0.320309899756116,0.82956522210071,0.462822743946801
"422",-0.761108038455533,0.868839208542796,-0.76853065629603,0.652350833635296
"423",-1.058819073634,0.754526669090691,-0.231617720718605,-0.78006629530755
"424",0.725648825454313,2.45063661814989,-0.738099165034768,-1.45302597841369
"425",-1.01848699288522,0.405791891142872,0.482608967747881,1.10545292724274
"426",-0.0709688850068587,-1.12927826538314,-0.591139170387717,1.01856027465332
"427",-1.28144734169817,-0.0122761060809523,-0.608081125226597,-1.27405106133593
"428",-0.495850692294804,0.0876081934727106,-0.612670908587961,1.98019633773928
"429",0.775858399560013,-1.17964258600675,-0.796396800446474,-0.0095426237334701
"430",-0.213716646845827,-0.0958802070077587,-0.534768484903912,-0.163098587162493
"431",1.23141725350595,0.36095812054553,1.0139227908846,-0.570824728837843
"432",0.432848817011001,-0.361144397642703,-1.67699934596692,-0.389440270994067
"433",0.376886024508395,1.62270162687339,0.604127838913076,-0.424504747398221
"434",-1.4227914749647,-0.414403103812869,-1.04459689314134,-0.705236263114242
"435",-0.459033003837779,1.3789714852655,-0.353761823272355,-0.475116780273191
"436",1.89787467257643,-0.172434949059163,1.84098151683743,0.0969556872959023
"437",-1.65201847941941,2.12983950080453,-2.47587485304275,-0.771647851466293
"438",-0.817718652728,0.608114504475195,0.0394734005205191,0.524196202876778
"439",-0.254839658393691,0.838738756982607,-1.06773235886198,0.596945373240374
"440",0.466372438086907,-0.611656532112364,1.1588074924668,1.19534304873088
"441",-0.984193531202431,0.722159516380689,1.28248085379644,-0.258242858995237
"442",-0.302115357211442,-0.807528032536804,-0.367996318141187,-0.857981946967729
"443",0.187747402670357,-0.260706873863399,0.779349659623088,0.802504627515496
"444",-1.12458485441113,0.61796346423559,-1.58786192597529,-0.488309679205573
"445",0.740589385036237,-0.328876302647468,-1.02013230076425,-0.589544385150129
"446",-1.54550850737075,1.43897633654792,-0.538193706058623,-1.10920210823273
"447",-1.17910794301871,-0.586278029425463,0.95045520581801,-0.00947205635509061
"448",-0.856767059385766,-0.431727883178314,0.874043148802501,-1.16970264014149
"449",-0.521162094540659,0.430488442003041,2.58256864644036,-0.463356771064858
"450",-0.749015236606971,1.93459394787253,1.31754433340977,-0.867921448482143
"451",-0.528064394543625,-0.532807421005966,-1.31060492454457,0.464983428149272
"452",0.316659033585344,0.887038921858064,-0.59362816561569,-0.0824516002697344
"453",-0.86972209675896,-0.929474654796504,-0.155317712625683,0.457403708876879
"454",-0.986677275503057,-0.250725839805713,-0.374618623015868,-1.1429696765007
"455",-0.366698988154036,0.707306780311452,0.131310179052961,2.09546178576689
"456",-0.956148890103234,0.278435224602447,-2.13944277592837,-0.885166339644252
"457",1.74834081143552,-1.25769027578091,1.21782048563441,1.51314810762823
"458",-0.129459217221172,-0.656608058784546,-0.45443286696346,0.132911357388704
"459",1.1110532821872,-1.89010401364208,1.82211007703768,2.83961947867247
"460",-0.794260964851828,0.313604016647944,-0.26139712352192,-0.0780568513239588
"461",0.396617471007539,-0.768244785166599,2.02618793537412,0.00839921163032919
"462",-0.837768896774132,-1.02700798864948,2.85765782453502,0.592618345508352
"463",-0.946669693727111,-1.45850335592624,-1.02635213581393,-0.220567136905332
"464",-1.45119793091144,1.62948233803593,0.416811744532582,-0.953846631525179
"465",-0.940808827612504,0.777844174007146,-0.217114878943235,-0.332288702690989
"466",0.6240257047803,-0.440414667467075,0.746714245727586,0.34313660237907
"467",1.00171951072438,0.368223259289441,0.430756504732244,0.101660674774508
"468",1.11124852309427,-1.60990433214984,0.78285075634479,0.360396863708147
"469",0.131088889826488,-0.427665563088577,0.633441580354702,-1.5935264011205
"470",-0.277732787350891,0.304440796600715,0.380560605606555,-1.0233145748889
"471",0.713464575911974,-0.236780641087452,-0.228542020650087,-0.322727972928071
"472",-0.336787817614647,0.478532869307664,-1.32746829392951,0.0590225509048014
"473",0.555656961932545,-1.3720156506166,1.75495889475644,0.626791734630308
"474",-1.84100417996823,1.08946958002606,-0.753462540373871,-0.257711472153234
"475",0.762662089690583,-0.935883848645654,0.887051526074447,0.488392223632564
"476",0.460912500434381,0.799176042198196,-1.36287520324491,0.804303051239681
"477",0.288791673868044,0.990124115468997,0.110255070202716,0.411681180280966
"478",-0.666967836782762,0.897538607652801,0.144238629122275,1.09683194796574
"479",-1.34710785455143,1.49389477573378,-0.146534046132887,-0.383227960711842
"480",-1.31141064282516,-0.874025698893723,-1.53336814739345,-0.504471764509951
"481",-0.635503700897714,1.28607244225701,-0.967817258557876,0.669232636202372
"482",-1.9019941685585,-0.429583685187595,0.517391063417761,-0.32777881838464
"483",-0.781500405440693,0.868639143480911,-1.52240274409862,1.47654511082248
"484",-2.18201482700198,2.44859455514075,-2.62233271020005,-0.916298250509704
"485",0.377124876398939,-0.713072132196215,-0.524149475617208,2.43659771696553
"486",-0.0155985158342036,0.809492888005472,-0.00833172683491437,-1.1581480734788
"487",0.0621062977080299,-0.419322033183146,0.658613863234054,-1.02697351873934
"488",-0.637964370845155,2.17409491672389,-0.897647533062359,-0.771511125670789
"489",-1.60193295505366,1.74295722885374,-0.478207842474776,0.410494299914126
"490",0.689124044686358,-1.00774708891675,-0.492593163341815,2.50218576638288
"491",-1.67255852623721,0.404132331086564,-0.143849330553276,0.0671532821253455
"492",0.0533200928461051,0.494651650492845,-0.198748312743981,1.57946003163413
"493",0.679062563453874,1.10246532690072,0.215946990963806,1.27900663571898
"494",1.02108828483798,-0.989887285588621,1.43883789596334,0.302139894687231
"495",0.645188272530969,1.4556514236117,0.119311515552166,-0.87211467101138
"496",-1.43552291900595,0.147072829095336,-0.400929087756701,1.4038483912182
"497",1.38250676905688,-0.131856824402552,-0.540523473946537,0.796209646552013
"498",-0.625648403706967,1.6225217386837,-2.21154977935423,-1.29569846920073
"499",-0.155747724656722,-0.683717813788147,0.471375835786568,-0.0239750885186772
"500",0.669373381830057,0.75197323315109,-0.778347891822724,1.48874992417729
"501",1.02320174039736,-1.34524884363345,0.849775555627644,0.926780669931211
"502",-0.69052981625199,1.11734923126671,2.16782252209352,1.00391084337913
"503",-0.472746837065389,1.35673868564728,-1.4708700781114,-1.31273432249992
"504",-0.33918313100951,0.0712346047936579,-0.903856503251891,-1.78617112240403
"505",-0.892725077409793,0.963566106349719,0.261498253799986,-1.56344168929285
"506",-0.37814337667226,-0.368557017642949,-0.0774893961779639,0.468137808783665
"507",-0.250052926440197,0.535088979210754,-1.8191454304502,-0.564848077710257
"508",-1.22174052113703,0.230463078289056,-1.0968166724128,0.88362036895867
"509",-1.16723166615418,-0.73920614093008,-1.99523035209823,-0.869946778517609
"510",1.06966215330933,-0.564372697498548,0.278835453590468,0.381782495451195
"511",-1.15210485852324,0.300191244507639,-0.0554039759547439,-1.27401301939609
"512",-0.0622936778930623,-1.00788086552754,-0.373042813502684,0.904370229055117
"513",-0.255292411061791,0.0280075357190265,-0.911438880183875,-1.47982613714133
"514",-0.390835040299679,0.287872455897668,-0.900462264945483,0.430816883662309
"515",0.228614510504223,-1.2493467394235,1.97134652140705,1.61101878598027
"516",2.00288419710741,-0.8671462125829,2.40877717667658,1.13098095975184
"517",-1.35122979629817,0.216178375196977,1.2998625843466,-0.772456298055247
"518",0.491165029307671,-0.442383988164136,-0.0970334223666783,1.59216081395853
"519",0.517069618260385,-0.423035241315183,0.295377433046387,3.29612402653819
"520",0.224831532701048,0.801272155338059,-1.03217016991981,0.438248177310555
"521",1.14591507720141,-0.983297039740565,1.13355234382507,0.535813430633053
"522",-0.268078160212095,0.975160692102348,-0.186857292757774,0.533014513548496
"523",-0.135313517721729,0.995772074134123,0.106349237142907,0.997367292687642
"524",-0.362338495710383,-0.841530362791453,0.99146938622053,1.81233308678755
"525",1.19367225463147,-3.67295417954753,1.82956398657818,2.90552613754981
"526",0.489575177490867,-1.86126017440644,1.77198217500271,-0.17341453620237
"527",1.75369916582215,0.439729729798332,-1.22471258818606,0.884555270454947
"528",-0.0147618430687089,-0.375480650143462,0.0916170156987681,0.045717312803366
"529",0.262538765733813,-1.07773007147144,0.944094640656078,-0.565029648112554
"530",-0.577051648614586,1.83868437928527,-0.784143910458064,-1.38315384556697
"531",0.0200442354007712,0.319821322008431,-2.30945261709998,-0.835164868531704
"532",0.401055655151206,0.398587024232111,-0.763593428414795,-1.57825960070254
"533",2.20666675127249,0.882742013538026,-1.68621781721733,-1.81374595127766
"534",0.0503870162579195,0.0813575413580345,1.33165242377829,-0.242718781304703
"535",0.284137630825002,-1.13584564026793,-0.0924673375582113,0.0829989617493337
"536",-0.646654068586273,-0.968331376519448,-0.123248424446123,1.08970058317812
"537",-0.792713144216854,1.12019991774057,-1.1809840324102,-0.967812442029883
"538",0.58795459108119,-0.825465139159107,0.0154434521454528,0.550016964705466
"539",1.21824228110524,-0.858243400335826,0.505374333916953,1.40278909566475
"540",-0.778146894166411,-1.42361464353994,-0.0222955483563908,0.257513725244027
"541",-1.1072883384536,1.46367896003982,-0.506664274198078,-1.00185845931492
"542",0.116134766077435,0.936231341606751,0.406671776849996,-0.353517980082533
"543",0.814241902410682,0.819619042819719,0.510116238441097,-0.429923833726494
"544",0.481679767728084,-0.464605573084251,0.722953255619204,0.347712700235605
"545",2.09047067190081,-0.548857472246113,-1.52092525679714,-0.743234541560029
"546",0.445826077602274,-1.66195427384934,-0.531926840271914,-0.13997272032818
"547",-1.11188495868912,-0.535407852204964,0.168098238447205,0.26428969010672
"548",-2.38838783983445,0.544423628517903,-0.0158816481250084,-0.582836470431896
"549",1.05595651775222,0.834522029344368,-0.963827878437373,0.45843320301157
"550",0.707741172283907,-0.479180673348689,1.2395896774092,-0.118670603766689
"551",1.44926961713845,-0.270188103569884,-0.618785265975846,-2.14637975006074
"552",0.211342945456824,-0.515936904406974,0.902248608120322,1.39633963113105
"553",-0.870039008327884,0.939018237317472,-0.244129526030456,-0.785251230976418
"554",-0.0710593395347071,-1.53537135316913,-0.0877514735878681,0.262502053504266
"555",1.99914664219771,-0.533189547011208,1.98483690332715,1.29209020881834
"556",-1.40083450903612,-0.910727719843894,0.361972268766452,0.0307118240180493
"557",0.690896646818871,-1.09241886351943,0.589213259278431,1.56234707091843
"558",-1.03467999989211,0.929704880447142,-1.61759309429034,-0.353889855580445
"559",2.63857465212858,0.68235255363262,1.82302992677405,-0.359071281986715
"560",-0.744033927111477,-0.546866350179826,-0.802724235905415,0.59207021947478
"561",-1.16840160200715,0.579642767992816,0.0245983753968111,-0.265091031929655
"562",0.999332553277777,-0.732253937158404,-0.105663164496035,0.132181683249614
"563",0.477744984890337,-1.50803245087643,1.12249380836102,0.204124099283861
"564",-0.326364323500445,-1.62152278230118,1.27149197645908,0.852198634822459
"565",-2.91454219190417,1.00670159735098,-2.06804275044115,-2.27176418215423
"566",-2.22087742173805,-0.191124583068196,-1.15267404947624,0.078099484727043
"567",2.16547059305591,-0.650994411925557,1.30737753465006,0.8495059929178
"568",1.36932591006789,0.90962304773186,-1.38686959816761,0.241288225477289
"569",-0.10482906945433,1.28586881716729,-0.847214869109527,-1.14459762417531
"570",-0.159328500087223,-0.146226780566792,-0.172004625950171,-0.14794796574782
"571",-0.785106379893315,1.6525273936977,-1.47199774591467,-1.61792769029866
"572",-1.34674132917373,1.09655513718708,-0.477844720284392,-1.07938688795996
"573",-1.17137363281609,-1.34202366866674,-0.522318835485377,-0.106526473181553
"574",-0.266870162096333,0.836564509985676,-0.777109130378207,-1.09747155764963
"575",-0.167635304578009,0.107177485222994,0.515801456098485,-0.151768807088647
"576",0.500605367212741,-0.77011660319751,1.12399916378274,0.968345635095151
"577",-0.0990153663815704,-0.0403568972459347,1.13267049949065,1.0499086341211
"578",1.4249676090494,-0.900763570122435,0.465169495498984,-1.06810899516874
"579",1.08058396491754,-0.952000231328893,0.0998093538684225,1.11587731064331
"580",1.0567188319368,-1.13464669681212,-0.0814568817060188,0.346180465877423
"581",1.1349767418324,1.15591529430117,0.135319647847983,-1.79195916439034
"582",1.06271326333935,-1.3860728532828,-0.208671453499921,0.0516484170441187
"583",0.0900063819169682,0.216830057444621,-2.5672032277035,-0.494156091886742
"584",-1.80878222532925,1.03395086776465,-1.62609102816431,-0.07934668684603
"585",-1.31626490349317,0.203514439737548,-0.989080617101627,0.0954941309876257
"586",-0.927108847361995,0.133003561143739,-0.204979310234634,-0.665519586518889
"587",0.64071888862757,0.370015133415873,-1.88463416026408,0.221503727230906
"588",0.217151757441695,2.07213086410162,-0.322099876062422,-0.310703151185484
"589",-0.366015173581087,0.794457531909952,1.00897603877231,-0.356601592301181
"590",1.48337793818627,0.134860014733683,1.09582433918619,-0.566464678574603
"591",0.135800761196425,-0.227422649203916,0.577511153235522,0.800836619852031
"592",0.154514370415711,-0.0687851113743343,-0.0316655365727781,0.609559185301504
"593",-0.427489655865988,-0.955117626555854,0.347182904833518,0.0867489680365572
"594",0.758957533569865,-0.364713832336233,0.877117906189367,-0.0995654327034041
"595",1.06416377697133,1.56772427521757,-0.253791973133235,-0.297969961108819
"596",-1.39789936631891,0.642408081365174,0.0974083453246272,-1.07166775143568
"597",-0.951246721035414,-0.588392045010231,0.747372453256485,0.778499559231036
"598",0.126530254522114,0.294595247625874,0.269405709465442,0.395166953610262
"599",-2.3503098790898,1.61348566054706,-1.13682217443715,-2.20748774957614
"600",0.715230349052783,-0.239763985139622,0.67656779539465,-0.332475754574523
"601",1.08541086867354,0.449779910627218,-1.59299170205916,-0.0176866032186471
"602",0.277487050556792,-1.83359697217408,0.791753813026932,-0.145889434829194
"603",-0.315519873286062,-1.89216855143025,0.3024517348048,-0.728226234606968
"604",-1.92531737916928,0.431735154350661,1.22189439478754,1.49177014334237
"605",-0.252744238893565,1.23244895617198,-0.860326784301218,-0.503603726414774
"606",-0.445943427860972,0.540410296301436,1.39651687532776,0.92267059395047
"607",0.0194396490518826,1.11035246658966,-0.0316795170243191,-0.971067826030958
"608",0.926802601052482,-0.22707648081744,0.633682639434376,1.13944401409473
"609",-1.51714599784461,0.999567727082039,0.687842502762088,0.202424949218071
"610",-0.715178629886859,-0.957935106152542,-2.87880768565328,-1.79312009174004
"611",-0.512362759054368,1.33357148185674,0.619747624450061,-0.444493503329176
"612",0.0655406434278272,0.526488298086018,-1.04938756915527,-0.688595697267349
"613",-0.867376323296117,-2.78571440073915,0.177229910294592,1.16198159126506
"614",-0.186769990252104,0.246514879584808,1.39613780092554,-0.197979016042655
"615",0.0609669089961786,0.464763521794578,1.09031603969273,0.520991849452012
"616",0.669487745220807,0.674967027028974,0.636192456157718,0.825914262172758
"617",-0.495807513647065,1.1512755787862,-0.232718204328891,0.106421517831657
"618",0.447196887625144,-0.760803994692143,0.167816087298528,-0.553964234098539
"619",0.487911484777739,-0.57340376414463,-0.623253848458955,0.254687813065079
"620",-0.582069263827336,0.143385464004478,0.654484077947488,-0.649437313695793
"621",-0.775574132181929,-1.69129410522848,1.19153984346143,0.433428312119259
"622",0.0240346373043911,0.696290267615088,0.558918410877278,0.730365031229824
"623",0.0483658622781252,-0.00200765555358312,1.81224940424436,-0.576324927922061
"624",0.242381156836985,-0.436215345887786,0.546563854789455,-0.114359212577777
"625",-0.496577761574788,-0.0819195582116913,-0.996664679147687,-1.32336520234879
"626",0.260062516844754,0.0627207791759311,1.02339802537393,-0.726980108017039
"627",-0.635001846378893,-0.853497347495201,0.227042967401619,-0.373682002912512
"628",-0.851381844309509,-1.32668030253971,1.68441398709226,-0.489137706397634
"629",0.0933061020677854,-0.661099236650011,0.158506161658147,0.730000312191198
"630",-1.07596751644325,-0.952203270629027,-0.372994047365144,1.10688686558426
"631",-1.0704692572196,0.718279133771607,-1.79377732407313,0.676379394693122
"632",-0.268030007511869,-1.42473913714181,-0.351308654449239,0.71918165172052
"633",0.517114247759291,1.70384195310643,-1.38109020104606,-0.186509539655447
"634",-1.10731260312024,-1.13114460531626,1.40702685037359,0.0336996419035601
"635",0.168458848311256,-0.894879394132453,-0.731037427575583,0.716119964459662
"636",0.0201683083036044,-0.250030474242567,0.382225156097827,-1.7879715275525
"637",-1.71718785466799,0.769980907722474,-0.38346609260771,0.15461522102729
"638",0.361455620130963,-0.167922246674474,0.991430022854176,-0.235324404289395
"639",0.511485010428195,-0.211026789524514,0.795068395503014,0.540370745034718
"640",0.0505308111486555,-2.12845520672828,1.11421741075806,0.920113720234567
"641",-0.374577400353076,0.447455022150546,-0.999521890562268,-1.58678596671795
"642",-2.12018860052067,0.761492248531582,-0.124170752067446,-1.38104659648054
"643",-1.15838917078869,2.04659056900468,-1.39080815471092,-2.63934489795986
"644",0.277253622726248,1.43488503614996,-0.185387491627606,0.419460886648807
"645",0.818106691137136,-0.744988901180564,-1.5483293214723,0.866708652869054
"646",0.945581710035226,1.14187772054792,-0.149120841095891,0.0288489361551439
"647",-1.95085090598756,1.4247251303129,-0.257808035526175,-2.11394480060599
"648",-0.163185525485945,-1.74543514976586,1.39358970041821,-0.419992242632664
"649",0.575951366325199,-1.84831311496211,0.975329776136396,0.733099767787193
"650",1.44275343766979,-0.789386316915892,0.986395078715238,0.344353181394185
"651",2.06054891325394,-0.720025142254553,1.04085777218439,0.303690475988248
"652",0.57682924096275,0.484833383538505,-0.439792962303709,-0.142862976959487
"653",-1.19981408601223,1.01005963142892,-1.05090181779595,-0.867456818363911
"654",1.74743035283262,-1.75115912439637,-0.339687196744963,0.491533306189628
"655",0.627486278480659,0.045249626299997,1.71847551084093,2.10252568850813
"656",-0.797503525000116,0.692865334232337,-0.83110460524017,0.157413354092745
"657",-0.0514338303054142,-1.72770918609744,0.121270915973249,-0.982779304170804
"658",-0.629124916634057,0.683643236567163,0.470402325762517,-0.438545799840168
"659",-0.518989843157727,1.71436560568983,-0.311116394846658,-0.672264460983072
"660",2.20942530927696,-2.38344928057715,1.08043763154694,0.682547397235685
"661",0.662192716861938,-0.0448677924450479,-0.290782424143982,1.4411566911956
"662",-0.829820995835895,0.672853807592974,0.656581061605065,0.799195664332077
"663",0.390898756659863,0.378758076424893,0.0922298289930166,0.720311612264646
"664",0.435077023700231,-1.48376436305173,-0.0412224551117669,0.134228596204074
"665",1.25276772918124,-1.34868588542989,-0.148771907271048,1.50542757700244
"666",-0.404665615794463,0.738795692257762,0.36324230371083,-0.150196435057152
"667",-0.0703911100800219,0.312619903957628,-0.484022301728016,0.963943550248192
"668",0.211581053161906,-0.78098522058338,0.150449989813891,-0.353209325763842
"669",-1.27532349340759,0.302834471707601,0.450713702832277,0.300561280793531
"670",0.467489777966334,-0.847769962341339,0.843861988290022,0.545197881104124
"671",0.313783366106565,-0.425199843716451,0.439467033129115,0.880673057018143
"672",0.190007601284152,0.0439971247662051,-0.269929126028042,-0.142165005866351
"673",1.94233891239897,1.04882069191703,-0.724542570335289,-0.826595147341037
"674",0.461032108547022,0.42397337233177,-1.30353081674836,-2.36009570147841
"675",2.13262325000501,0.357386879464694,1.01821233293725,0.44825638774965
"676",-0.903724742409364,0.840603987371708,-0.368426530367628,-0.332585710902145
"677",0.690119206347138,-0.568264056431305,0.996215688554479,0.901870327008972
"678",0.634847415229424,-0.109605289232009,0.596338211964349,-0.809567116285662
"679",0.000160375677216403,0.306765221343748,-0.510990148694835,-0.304925447253437
"680",-0.149291673837302,1.08465268275811,1.06877016805753,0.446582168916856
"681",0.209043318166754,1.00276582396051,-0.338441461798328,1.06842062628152
"682",-0.912616912268047,-0.575996454758669,0.296582079933834,-0.675654752433826
"683",2.08648263295507,0.485072769497039,-0.672673520915463,0.114593376103998
"684",0.148757365640553,1.5317737856107,0.272185816992537,-0.414178123313584
"685",0.405113324972566,-0.14344713073991,0.857300694944076,-0.49698964972919
"686",-1.44667732745064,2.12238318631507,-1.70967248098296,-1.33473942121171
"687",-0.358151123432612,0.0636691808195126,0.80061426357983,-0.663583496554929
"688",-0.499175373945037,-0.682540604109486,-0.48650176755314,-0.436395896835753
"689",-1.39378165925347,1.42692643045868,-0.467914529144166,-0.153218122518581
"690",0.21783125919127,-1.22123372525989,1.33124781531379,0.123235738560696
"691",-1.29510056104431,0.940360483803232,-1.28121088430156,-1.28589295289367
"692",-1.27509914998881,1.90316761234289,-1.78291397242675,-1.46358881061776
"693",0.284293213287193,0.0628892569902885,0.187234083842507,-1.61495380117239
"694",-1.83974223892498,0.253299204105676,-0.471446106036848,-0.559857357778361
"695",-2.11430295705584,0.809751725323915,-1.10525529668387,0.862549385028301
"696",-0.0674460941171339,-1.38338142477279,0.575155227413362,-0.485429274930079
"697",-0.165900187343926,0.276323655129284,-1.22154172012804,-0.497404424858241
"698",-2.04479505092332,-0.365049704044953,-1.66228711827263,-0.990853091511376
"699",-0.550655680763759,-0.673373082709555,-0.916085846547048,-1.45665149169353
"700",0.0138450004149132,-0.223718698750158,0.549662975152828,-0.974192877245511
"701",0.241365791040037,-0.524647842180401,-0.910487973128989,1.4090504751757
"702",-0.614726136829846,-0.577371994527264,0.685729878615673,0.642802617560963
"703",-0.708134083362966,0.510220317440576,-1.85094299206335,0.231210479318631
"704",-1.39740785041324,-0.651380271345264,-1.65618031206877,0.363703586069311
"705",-0.557472804388459,0.490327144606205,-0.183160651333209,0.613845011911264
"706",-0.896751210541501,2.16090044742347,-1.22150186778835,1.08211636207103
"707",0.750032014359735,-0.275032653218734,0.314572806131684,1.58511308234609
"708",-0.225823664176567,-0.605171522154431,-0.130242094143364,1.38502471912308
"709",-0.130898107956683,-1.31228512450614,1.22071091646587,0.736219692871222
"710",-1.77353691754953,0.333188877441278,-0.753722978808605,-0.784045454223234
"711",0.722728416937845,0.509393494254027,1.30397871313089,-0.180558857077692
"712",-0.69532007062957,-0.0971722155652941,0.76518618044688,1.0736351376926
"713",-0.740136995109605,-0.97036949384383,-0.729215272763639,0.116839425310164
"714",0.688565113794166,-0.174177313923144,1.92456635885497,-1.42704375716685
"715",0.362877492840434,-0.643311075274195,1.453123981827,1.00718010528085
"716",-1.51041705985829,-0.0568879122727499,0.0245309662452349,0.897363707708585
"717",0.734021389701167,-0.0855427168882703,0.244712519485958,0.154827460789338
"718",0.433816783650963,0.741057860672812,0.929664809520374,-0.94622422388505
"719",-1.02581202575944,1.75017687144842,-1.06191328809555,0.103732366482153
"720",-1.03008163716858,0.351021199526758,-0.957479026614107,0.0771579886321312
"721",1.14925693429522,-0.521928068675259,1.24288849476383,0.686933671892459
"722",0.0611398294655196,0.748494630633373,0.871172777776114,-0.397484687835162
"723",1.46844528480827,-1.28129895561818,0.0875740551683811,0.110975742319583
"724",0.0042686243840031,-0.990598701043212,1.10428302193714,-0.435619128624377
"725",-0.455445306019882,-0.0313375642307907,0.00583968471317448,-0.509017436080154
"726",1.03940463738036,-0.955358505223736,2.18870195796447,1.32978749051205
"727",-0.886009150383453,-0.943230361600918,0.615321722894267,1.1138038066849
"728",-0.0405296926854657,-1.3541132513772,0.547415146558906,-0.640534376091709
"729",-0.370758091361228,0.2982569512717,-0.428223113703615,0.192952359857704
"730",-1.410872046501,1.95069404957435,1.19693522581643,-0.233138788484447
"731",-1.02730356907107,0.859017927364132,-0.49684918827248,1.33234941421587
"732",0.494304986372668,-0.887875906141214,-1.22481606171094,-0.0928101106375155
"733",-1.07579245321119,-0.610180559113667,-0.884713023925157,-1.18069544882651
"734",-0.442106585256193,1.40554505628322,0.961129911869573,0.265290899887062
"735",-0.107720265543109,-0.125324995449296,-0.326325915401034,1.35416507320363
"736",-2.12121528931649,-0.506768390791229,0.16801755004874,0.115608975964462
"737",-0.765504814566131,0.831053649824589,-0.157560415248546,0.247145142132096
"738",-0.452726647963078,-0.160379176081066,0.20090516209275,-0.92968066612568
"739",-1.12893985960647,-1.12868316691777,1.06273047115088,-0.0419054418830181
"740",0.38040955670624,0.869377059323741,0.14599300853955,0.117010098763946
"741",0.768945360404137,0.466635434970966,0.130731788893752,-0.928367404770051
"742",1.94400086979635,-0.273089352047985,0.746160962673615,0.946495792868759
"743",-0.791157162779462,-0.32972856519816,-2.54784878794596,0.402751501140374
"744",-1.88350697084974,1.74185663969535,-1.38241938275165,-1.30595882047774
"745",-1.85969029017852,0.82775672117567,-2.83503261985662,-1.53792263200607
"746",0.100829706789141,-0.298698091820163,0.704087407031706,-0.288736228068997
"747",-0.692957415173661,-0.711592487266464,-1.07873215179293,-0.707063658697227
"748",-0.735189143820186,-0.996465510551447,0.37011622414771,0.881697401480815
"749",0.092073032815978,0.687557303315375,-0.0046270757848714,-1.22209969017803
"750",0.860276550631574,-0.513089064231206,-0.617778376984218,0.189257069743962
