"";"BALlog";"Att";"Expect";"EdS";"ID";"Expect_dummy"
"1";57,8792934250615;38,3306203390187;41,3579195290418;-1,24775632555587;1;1
"2";58,0277429242111;35,7316719636542;40,4588651884635;-1,13267177919831;2;1
"3";58,1084441176683;34,5894207157173;39,5137420000145;-0,0754971537396614;3;0
"4";57,7654302297371;35,5354554406831;40,2804925562212;-0,987857814492095;4;0
"5";58,0429124688811;38,0507000364027;41,4691804788392;-1,99751487558594;5;1
"6";58,0506055892158;34,9402000195887;40,4744118006667;-0,854933077764628;6;1
"7";57,9425260039865;36,7490729868772;40,4009176827108;-2,27761077633947;7;0
"8";57,9453368144216;36,575782166505;39,4028290338067;-2,64604114550442;8;0
"9";57,9435548000907;35,4729496367009;41,4016172640617;-1,30940961700925;9;1
"10";57,9109962170956;37,5328138863364;41,379477427625;-2,26841695975479;10;1
"11";57,9522807300246;34,9089688490275;40,4075508964168;-0,610922558874783;11;0
"12";57,900161355514;38,1231232628681;41,3721097217495;-1,30804268911307;12;1
"13";57,9223746105362;36,2494630126544;39,3872147351646;-1,94053563528871;13;0
"14";58,0064458817276;33,1700554460233;40,4443831995748;0,399094508325327;14;1
"15";58,0959494058971;36,9869032837354;40,50524559601;-1,38655069351527;15;1
"16";57,9889714505609;35,2239180141441;40,4325005863814;0,208211698431114;16;1
"17";57,9488990494193;35,3758323314497;40,4052513536052;-1,30327148815381;17;0
"18";57,908880458337;35,6814624268471;40,3780387116692;-1,49552041199999;18;0
"19";57,9162828319731;34,3288561564451;40,3830723257417;-0,797145887266993;19;0
"20";58,2415835178489;36,6470998206133;41,6042767921373;-0,33264614459106;20;1
"21";58,0134088220152;31,8007346805901;39,4491179989703;1,47786384221038;21;0
"22";57,9509314103309;36,3792883468754;40,406633359025;-2,22599540334447;22;0
"23";57,9559452127647;35,6627945952156;39,41004274468;-1,37743753417188;23;0
"24";58,0459589441006;36,1376470017739;41,4712520819884;-0,169344469568017;24;1
"25";57,9306279753063;36,493172076896;40,3928270232083;-0,837450280131897;25;0
"26";57,8551795089614;35,9497320227845;40,3415220660937;-1,32189953440587;26;0
"27";58,0574755720901;39,8733940561831;41,4790833890212;-2,55676969606262;27;1
"28";57,8976344277036;35,1355475475398;40,3703914108385;-1,4382625743208;28;0
"29";57,9984861699636;37,565945504919;40,4389705955752;-1,40386074873678;29;1
"30";57,9064051398832;34,264421722559;40,3763554951206;-1,24655652970463;30;0
"31";58,11022975462;33,1382094732853;39,5149562331416;0,327206238501248;31;0
"32";57,9524406921131;36,0385583001944;41,4076596706369;-1,65387984785139;32;1
"33";57,9290559962487;34,5396007425689;39,3917580774492;-2,7541933386054;33;0
"34";57,9498741939405;37,8185225190969;41,4059144518796;-0,69399270089378;34;1
"35";57,8370906530921;36,8690736820903;40,3292216441027;-1,23583726914332;35;0
"36";57,8832380737906;37,3064737969236;40,3606018901776;-1,35545686374842;36;0
"37";57,7819960351051;34,7058092392111;40,2917573038715;-0,455809497855626;37;0
"38";57,86590068079;37,7076306885148;40,3488124629372;-4,04755535573765;38;0
"39";57,9705706141236;38,1325639413241;41,4199880176041;-1,7562949150939;39;1
"40";57,9534102459594;37,0269758228319;40,4083189672524;-1,34596387336696;40;0
"41";58,1449496265287;37,0013628067347;41,5385657460395;-0,7002297638915;41;1
"42";57,8931357276325;36,1379794363941;40,3673322947901;-1,41795667548755;42;0
"43";57,9144635366263;35,303701565393;40,3818352049059;-2,17467194902074;43;0
"44";57,9719376998043;35,9614545431668;40,4209176358669;-0,830877128571927;44;1
"45";57,9005659923704;36,411355675636;41,3723848748119;-1,14188775897843;45;1
"46";57,9031485682128;35,1002725976643;40,3741410263847;-1,05232883985027;46;0
"47";57,8892681807358;36,6594267145803;40,3647023629004;0,00190221028944393;47;0
"48";57,8748014114361;34,6590535058086;39,3548649597766;-1,68835329295906;48;0
"49";57,9476171881013;36,114418663313;39,4043796879089;-2,43829542439882;49;0
"50";57,9503150042733;37,9694228577705;41,4062142029059;-2,47069844927445;50;1
"51";57,8193968743198;36,6651103386764;39,3171898745375;-2,13737694363907;51;0
"52";57,9417924075311;37,8808151924424;41,4004188371211;-2,57330810043139;52;1
"53";57,8891110375573;37,8159916840298;40,364595505539;-1,20379662656494;53;0
"54";57,8985037990508;35,1244717648139;40,3709825833545;0,650843489043169;54;0
"55";57,9837690476443;35,4713692307856;40,4289629523981;-1,30993380381841;55;1
"56";58,0563055818995;34,7954454129598;39,4782877956916;-0,475983169023287;56;0
"57";58,1647817472815;37,4242145446953;40,5520515881514;-2,4198175560761;57;1
"58";57,9226646576056;34,5711631925575;41,3874119671718;-1,39601693068911;58;1
"59";58,1605909628857;35,6044652298368;40,5492018547623;-0,748653705506676;59;1
"60";57,8842191452306;36,8525041869392;41,3612690187568;-1,50664864094109;60;1
"61";58,0656588464333;35,2377145325446;40,4846480155746;-0,473476117927589;61;1
"62";58,2548991070718;35,7558631724586;40,6133313928088;-0,676343094572943;62;1
"63";57,9965239610196;35,0954777392473;41,4376362934933;-1,85067903258653;63;1
"64";57,9330366420338;35,9039625839588;39,394464916583;-1,95245026076125;64;0
"65";57,9992395244289;34,4287183635997;40,4394828766117;1,13826606818805;65;1
"66";58,1777084448143;36,4809883692073;41,5608417424738;-1,51739731880027;66;1
"67";57,8861392263249;36,1737032786149;41,3625746739009;-1,14620280931749;67;1
"68";58,1367827179423;35,4077642234233;39,5330122482008;-1,35524782821334;68;0
"69";58,1329564790782;36,3185496067489;40,5304104057732;-1,86665120319653;69;1
"70";58,0336472797204;35,1374506266098;39,4628801502099;-2,16682783873167;70;0
"71";58,0006892838442;36,1695802552676;39,4404687130141;-2,35614185884878;71;0
"72";57,9544531261839;33,6044263594835;39,409028125805;-0,279165005394027;72;0
"73";57,9633476067126;37,1992365083283;40,4150763725646;-2,18443792128331;73;0
"74";58,0648286567503;35,5954984959491;39,4840834865902;-0,590763493993052;74;0
"75";58,2070270861331;36,1699473878004;40,5807784185705;0,0644495088880959;75;1
"76";57,9846601587533;35,1874074547024;39,4295689079522;-0,0531705335465631;76;0
"77";57,8609299053299;35,5216321720194;40,3454323356243;-1,27670184171815;77;0
"78";57,927641822289;36,161351625756;40,3907964391565;-1,71663052611063;78;0
"79";58,0258261762168;37,8598740696688;40,4575617998274;-2,31413094302942;79;1
"80";57,9682940885039;36,5058342039582;40,4184399801826;-1,2198556521684;80;1
"81";57,9822210042336;36,3891924825573;40,4279102828788;-1,44212607817651;81;1
"82";57,9830005923145;37,8571796134977;41,4284404027739;-1,05367680695142;82;1
"83";57,8627698114123;36,3216849505005;41,3466834717604;-1,7430439434873;83;1
"84";57,9826212829586;35,5250938052818;40,4281824724118;-0,580711436823904;84;1
"85";58,0850232257122;36,8400816249154;40,4978157934843;-0,555994132318169;85;1
"86";58,0697608711668;35,0471333435;40,4874373923934;-0,185272812699665;86;1
"87";58,0549997351091;34,6790676298884;40,4773998198742;0,997305673664947;87;1
"88";57,9597268024552;34,82412524059;39,4126142256696;-0,998348214569297;88;0
"89";57,9808406229522;37,4910411007462;40,4269716236075;-1,78424228602047;89;1
"90";57,8805472120398;35,9881797673016;40,358772104187;-1,22684372010804;90;0
"91";57,9946841181257;36,2198343655095;39,4363852003255;-2,84478351879516;91;0
"92";58,0255196000996;34,391747535738;39,4573533280677;-1,10513341008971;92;0
"93";58,170596400724;35,1354061467931;39,5560055524923;-1,74632500968723;93;0
"94";58,1001513252363;34,1771448998454;40,5081029011607;-0,873077533368317;94;1
"95";57,9504416556999;36,4460303753336;40,4063003258759;-1,45957076250099;95;0
"96";58,0355550297;36,8816976430945;39,464177420196;-2,62196200382069;96;0
"97";57,8865391956466;34,4490152063933;40,3628466530397;-1,11647480408694;97;0
"98";58,0878203626952;38,0249215324663;41,4997178466328;-2,62505854516657;98;1
"99";58,0972916753376;35,7633888156375;40,5061583392296;-0,380395894506933;99;1
"100";58,2121117105376;37,4509635928424;40,5842359631656;-3,17450562148109;100;1
"101";58,0414523534375;35,3300392529765;39,4681876003375;-1,38633383270011;101;0
"102";57,9525281526471;37,2153803873617;40,4077191438;-0,73400983221898;102;0
"103";58,0065993493704;36,4281193838931;39,4444875575719;-2,74351112921855;103;0
"104";57,9497522217606;35,6068792538944;39,4058315107972;0,208701503821509;104;0
"105";57,9174001412871;36,0660673785841;39,3838320960752;-2,0566052742624;105;0
"106";58,0166989279753;36,7331757821359;40,4513552710232;-1,73618265872674;106;1
"107";57,9103735373755;34,4083112861961;39,3790540054154;-1,00378828108523;107;0
"108";58,0168185387656;38,8302800490175;40,4514366063606;-1,56706679413008;108;1
"109";58,0354968261015;36,536655076303;40,464137841749;-2,2768946594097;109;1
"110";57,9947894883129;35,1517408347701;40,4364568520528;-0,80758786988789;110;1
"111";57,9804065381284;36,6068026666419;40,4266764459273;-1,73266331571263;111;1
"112";57,9350930248394;35,9433323608253;40,3958632568908;-0,675204511131078;112;0
"113";57,8890232768601;36,0734092243925;39,3645358282649;-1,65924659612218;113;0
"114";58,0849274202655;36,4565561586898;41,4977506457805;-2,22735750691015;114;1
"115";58,0022362526076;35,0562518777833;39,4415206517732;-1,31595374749174;115;0
"116";58,0831140617307;37,9319237028659;41,4965175619769;-0,619597978810518;116;1
"117";57,8755712148656;35,9439723563114;41,3553884261086;-0,904265217443623;117;1
"118";58,0169026413766;35,6079858365402;40,4514937961361;-1,28890664867392;118;1
"119";58,0673166306948;37,8098588718653;40,4857753088724;-3,20751088368609;119;1
"120";57,9973723623552;33,6089849726219;39,4382132064015;0,232993938101956;120;0
"121";57,9808607831444;36,2742085127836;39,4269853325382;-1,24864753969292;121;0
"122";57,92180933533;36,8080510357025;40,3868303480244;-2,03786519891462;122;0
"123";58,2058161987763;35,5340813553422;39,5799550151679;-1,54312179699056;123;0
"124";58,0750501453156;35,0031977376073;41,4910340988146;-1,00302402300876;124;1
"125";58,1824208302378;36,6857561881972;40,5640461645617;-2,84597967314618;125;1
"126";58,0080059641092;37,5014137263145;40,4454440555943;-0,507414886548624;126;1
"127";57,9368590701034;35,4134307928473;40,3970641676703;-0,935914123264567;127;0
"128";57,8486711879966;34,8919218225018;39,3370964078377;0,0720510453870773;128;0
"129";57,9363900168915;35,0884650768865;41,3967452114862;-0,196430839518626;129;1
"130";58,0226301532497;34,6804141994017;40,4553885042098;-1,77129238947957;130;1
"131";58,1013690347466;37,8015216032371;41,5089309436277;-1,77009047231444;131;1
"132";58,0252750135066;38,0111025746958;40,4571870091845;-2,23042843053136;132;1
"133";57,8828051687159;33,709571078115;39,3603075147268;-1,51255797779699;133;0
"134";58,0668714328525;35,4432504366806;39,4854725743397;-0,31509933408605;134;0
"135";57,8349899065156;34,9647864480283;40,3277931364306;0,669562966771274;135;0
"136";57,9634147751808;34,147711238437;39,4151220471229;-0,270005321492377;136;0
"137";57,9683881671167;39,5654286808395;41,4185039536394;-3,03128668822953;137;1
"138";57,8051753952679;34,2131205557324;40,3075192687822;-0,28317537704492;138;0
"139";58,0920057522391;34,4445097701909;39,5025639115226;-0,238014631817656;139;0
"140";57,9377128405121;36,9151416091623;41,3976447315482;-0,565830431772341;140;1
"141";57,9665963350003;35,3377986611357;40,4172855078002;-2,05522220076893;141;0
"142";58,139514789253;36,4729824705259;40,534870056692;-0,237803207174537;142;1
"143";58,0636674411039;34,61550769808;39,4832938599506;-0,528082332147633;143;0
"144";57,989156830301;37,493693032898;41,4326266446047;-0,55094594551948;144;1
"145";58,0513762778405;36,1751362618519;40,4749358689315;-1,63171920663012;145;1
"146";58,0399271807274;34,6798010231041;40,4671504828946;-0,39766525883558;146;1
"147";58,166285644743;34,6509885597883;40,5530742384253;-1,20651664595258;147;1
"148";58,0275893403585;34,6063177164089;40,4587607514438;-1,30404797246758;148;1
"149";58,0506272623208;34,0915419585591;39,4744265383781;0,237228011749032;149;0
"150";58,0347551975024;33,4598259771826;40,4636335343016;-0,483282189880171;150;1
"151";57,9622762352504;35,3488476252425;39,4143478399703;-4,07178547219643;151;0
"152";58,0097619463109;37,372029563837;39,4466381234914;-1,65230199740093;152;0
"153";58,1638744645122;36,8183788970789;40,5514346358683;-2,80409222969416;153;1
"154";57,912440752581;36,0394947392669;39,3804597117551;-0,579548398311879;154;0
"155";58,0121759998641;37,0706137084043;39,4482796799076;-1,6697833506956;155;0
"156";58,1362130660845;34,8063403520467;39,5326248849375;-0,399060906669654;156;0
"157";57,9765378913077;35,5995235936547;40,4240457660893;-0,738329015503872;157;1
"158";57,8946617192057;35,2193323820599;39,3683699690599;-1,13581009566433;158;0
"159";57,9130216394364;35,7866942616975;39,3808547148168;-1,25379059906309;159;0
"160";57,9609872970353;36,1253297854916;39,413471361984;-1,55824964790428;160;0
"161";57,915264992687;32,9144708741584;39,3823801950272;-0,97049984414808;161;0
"162";57,9739360607901;37,4138838889866;41,4222765213372;-2,31287653056644;162;1
"163";57,9585580293658;36,0636515407443;40,4118194599688;-0,522755166839474;163;0
"164";57,9816949202281;35,1935600955097;39,4275525457551;-1,60331363630819;164;0
"165";58,0407056097881;36,6429796339401;40,4676798146559;-1,98798389535994;165;1
"166";58,0624633128202;37,8460037859937;41,4824750527177;-1,58296683134733;166;1
"167";58,1678205743705;34,73453648049;40,5541179905719;0,555654687935892;167;1
"168";57,9931306346435;38,5503249174508;40,4353288315576;-2,9739462197864;168;1
"169";57,9679160087342;36,5552587596277;40,4181828859393;-1,54993135511804;169;1
"170";58,1471005717049;34,3816539588199;40,5400283887593;-1,2002001081875;170;1
"171";58,1704329397827;36,2171072951035;40,5558943990522;-1,85821421567694;171;1
"172";58,0043244037558;35,9624350658615;39,4429405945539;-1,63382053012773;172;0
"173";57,9667342680866;35,0235906470796;39,4173793022989;-0,818024880195004;173;0
"174";57,8177764582437;33,455249254274;39,3160879916057;-0,889974021821132;174;0
"175";58,1411262398747;35,359622809541;41,5359658431148;-1,97701898984576;175;1
"176";57,9162417565923;36,1907119447188;41,3830443944828;-0,603149722518936;176;1
"177";57,8876237205605;36,3846575896717;40,3635841299811;-0,974214340370679;177;0
"178";58,3043765886095;34,265982089635;39,6469760802545;-0,71324043779159;178;0
"179";58,0235021308251;37,146854647768;40,455981448961;-2,5611299186702;179;1
"180";57,9966741389887;36,9733448361362;40,4377384145123;-1,98595418022564;180;1
"181";57,7267780477044;36,7613551496914;40,254209072439;-1,2515015568184;181;0
"182";57,9900209411558;35,8860481455559;40,433214239986;-0,255061157199719;182;1
"183";58,0976031734922;37,3584163596778;41,5063701579747;-1,80661723433986;183;1
"184";58,0413868915451;35,8138502149902;41,4681430862507;-2,27730525696247;184;1
"185";58,091232216161;34,9997727751231;40,5020379069895;-0,502081517087589;185;1
"186";58,1983732200684;36,6558566373031;40,5748937896465;-0,87168353564185;186;1
"187";58,1169108514014;38,0213047704198;41,5194993789529;-2,51464846924078;187;1
"188";57,9491262984585;33,6785959356475;40,4054058829518;0,856692724129822;188;0
"189";58,0704180178465;35,350170335979;40,4878842521357;0,237127818367831;189;1
"190";57,9801583726178;36,6749742807052;40,4265076933801;-2,59724252452134;190;1
"191";57,9461929211115;35,7709417869114;40,4034111863558;0,965122640267026;191;0
"192";57,7144241344981;36,7095161929982;40,2458084114587;-2,78062697990323;192;0
"193";57,9210353147736;35,3881101617198;40,3863040140461;-1,07136835062195;193;0
"194";58,0487814635164;36,4143567766519;40,4731713951911;-2,39006019097175;194;1
"195";58,2168032539519;36,2474594268713;41,5874262126873;-1,72492300803542;195;1
"196";58,0500694614281;37,469451813881;40,4740472337711;-1,59832308100461;196;1
"197";58,0620210203667;35,1495194149064;39,4821742938494;-0,933707320787811;197;0
"198";57,9034096789866;35,9297927550047;40,3743185817109;-2,28735132854227;198;0
"199";58,0162654708118;37,2820183070829;39,451060520152;-3,98664635009965;199;0
"200";57,7921762458113;36,6436353092504;40,2986798471517;-1,19319508414837;200;0
"201";58,0485226820569;36,0040807200369;40,4729954237987;-1,99532818737023;201;1
"202";58,0696768778565;35,5363743287413;40,4873802769424;-1,05032793992995;202;1
"203";58,0185513915583;36,4039083751768;40,4526149462597;-2,07945512952821;203;1
"204";58,0700733515544;32,6940141800911;39,487649879057;-0,46907851171278;204;0
"205";58,0311681028661;35,2969650844303;39,461194309949;-1,20920174811536;205;0
"206";58,0760462361968;36,422829089324;41,4917114406138;-0,661479266872306;206;1
"207";58,1842463626208;37,2227817109585;41,5652875265821;-2,32364545875971;207;1
"208";58,1112362841263;35,9040924422186;41,5156406732059;-1,49696186577825;208;1
"209";58,0032663957501;36,7633704339185;40,4422211491101;-0,877906085996393;209;1
"210";57,8885551035203;35,4099831942697;40,3642174703938;-1,24362604006049;210;0
"211";58,0418057822385;35,0427733051312;40,4684279319222;0,409372054995785;211;1
"212";57,9599764762657;38,4451148642622;39,4127840038607;-3,15929483420572;212;0
"213";58,1493493102617;35,758335245156;41,541557530978;-0,551990581554939;213;1
"214";57,839291906015;34,3090035798663;39,3307184960902;-1,11076356660581;214;0
"215";57,9584248211598;36,2123740755415;41,4117288783887;-0,249756840423515;215;1
"216";58,0422008373217;36,5067271139521;41,4686965693788;-1,34370698640611;216;1
"217";57,9848263463465;36,3514605811721;39,4296819155156;-3,95080178773157;217;0
"218";57,9393848884736;36,7820979621435;41,398781724162;-0,763931234776258;218;1
"219";57,9695278931033;37,0312464983798;41,4192789673103;-1,42040071919194;219;1
"220";58,0629536099884;34,7372586759002;39,4828084547921;-2,24649795949144;220;0
"221";58,0895171980276;35,0253780144984;40,5008716946587;-1,92928404302079;221;1
"222";58,066021263182;37,3145229875954;41,4848944589638;-1,20328899707609;222;1
"223";58,2273483520447;33,7326223360236;40,5945968793904;1,09792791706857;223;1
"224";58,1173497572632;34,9436868045251;40,519797834939;-1,1010627830476;224;1
"225";58,0287709728314;37,7911810773417;40,4595642615253;-2,21667124234821;225;1
"226";57,9340229906179;34,7289916974781;40,3951356336202;0,722536903040016;226;0
"227";58,2919140130718;35,9118301863405;40,6385015288888;-1,83074904990795;227;1
"228";58,0677415500438;37,2691752119409;40,4860642540298;-2,08969361011133;228;1
"229";57,9315679655864;37,160123716405;39,3934662165988;-2,42685641845797;229;0
"230";58,0186492083081;38,1182331976693;41,4526814616495;-1,90481219598956;230;1
"231";57,9675606699516;33,651659593378;40,4179412555671;0,7343064686955;231;0
"232";57,9725295781774;33,9298562027911;39,4213201131606;-0,297231016260604;232;0
"233";57,906649665941;36,4603028531532;41,3765217728399;-0,428396531478114;233;1
"234";58,0116845344986;35,2452755683775;41,4479454834591;-1,08026857130906;234;1
"235";58,0319160238648;35,3802590636552;40,4617028962281;-0,955709657341238;235;1
"236";57,8922457877241;36,2090578498689;41,3667271356524;-0,56714829398706;236;1
"237";57,6766847867077;34,6387340438465;39,2201456549612;-0,813394547580494;237;0
"238";57,9745125347345;36,0145566384749;40,4226685236195;-1,04990916061907;238;1
"239";58,0029517830321;35,4967341892808;40,4420072124619;-0,267914915685111;239;1
"240";58,0594273774111;36,1805578819536;39,4804106166395;-1,42091485515181;240;0
"241";58,0059135168179;36,4834103789916;41,4440211914362;-0,968485229351586;241;1
"242";58,0413398894737;34,9046421851726;39,4681111248421;-2,14186289414414;242;0
"243";57,890222782543;34,6938397083441;40,3653514921292;0,428738663002441;243;0
"244";58,071117525727;34,888859140779;40,4883599174944;0,130799287987017;244;1
"245";58,0718888729854;36,3779632000221;39,4888844336301;-3,07467266679031;245;0
"246";58,0251651069029;36,7717730379246;39,457112272694;-1,45116709166216;246;0
"247";58,1357274436152;36,2544904695494;40,5322946616583;-0,750223135022068;247;1
"248";58,0404468471279;37,4337436297894;40,4675038560469;-0,761127402287855;248;1
"249";58,0264364269838;36,5703614526983;40,457976770349;-0,474748762970364;249;1
"250";58,0268043904144;38,7908193199091;41,4582269854818;-1,68147260727849;250;1
"251";58,0436930577039;36,1260266618211;41,4697112792387;-2,45111232366885;251;1
"252";58,1060123905487;34,3300697464625;39,5120884255731;-0,981080570659039;252;0
"253";58,0452190396529;35,5859692406486;39,470748946964;-2,78582445699082;253;0
"254";58,0663198615687;36,0412624975674;41,4850975058667;-0,623757994831919;254;1
"255";57,8863626446009;34,9902487878704;40,3627265983286;-0,450002185559391;255;0
"256";57,9629502482908;37,5376096321189;40,4148061688377;-3,10402351110891;256;0
"257";58,1476969589792;34,9723677640436;41,5404339321059;-0,368219756241515;257;1
"258";57,8776096249486;35,4153565059224;40,3567745449651;-1,37228178421548;258;0
"259";58,0258068387396;35,8027706959229;40,4575486503429;-1,90904281024432;259;1
"260";58,0405002805433;36,0730504866346;41,4675401907695;-0,79810772071491;260;1
"261";58,0975803321809;35,3686384593333;41,506354625883;0,00304471091184411;261;1
"262";57,965112326346;36,0974229155511;40,4162763819153;0,365713861707086;262;0
"263";58,0158625439491;38,2313268371014;41,4507865298854;-2,42990493711948;263;1
"264";57,8236744933459;37,0468356125043;41,3200986554752;-1,55366291744806;264;1
"265";58,03385960471;33,6550962744708;39,4630245312028;-1,09359568495442;265;0
"266";57,9333434970441;38,7438515376905;40,39467357799;-1,11465358770212;266;0
"267";57,9761353375672;37,1056701350145;40,4237720295457;-1,65095586446117;267;1
"268";57,8812234717543;38,5140670190535;40,3592319607929;-3,49203423477653;268;0
"269";58,0384935321769;33,4505211851086;39,4661756018803;-1,5210935514922;269;0
"270";58,0666579515654;36,4938171333665;40,4853274070645;-2,44113182376847;270;1
"271";57,9695386110542;35,8515793876776;39,4192862555169;-1,16890250795799;271;0
"272";58,1825011064086;36,9921496238136;40,5641007523579;-2,16539266462163;272;1
"273";58,0670559370568;36,6555191729324;40,4855980371986;-1,37717408310978;273;1
"274";58,0948632573255;37,0550539725211;40,5045070149813;-2,01749189295125;274;1
"275";58,2049403001671;35,9187944820807;40,5793594041136;-1,74926174628175;275;1
"276";57,9348886390762;35,8402887222157;40,3957242745719;-1,5593550580137;276;0
"277";58,0808619272846;34,2216051323219;40,4949861105536;0,0606581748992454;277;1
"278";58,0986580613955;36,6368803671278;40,5070874817489;-0,561771949381338;278;1
"279";57,9993829203909;34,8936263051786;41,4395803858658;-1,4519251112816;279;1
"280";58,0319052357932;37,2124842220256;41,4616955603394;-2,46505098936065;280;1
"281";57,8988178097258;35,9726521055381;40,3711961106136;-0,112764416806598;281;0
"282";58,0470167547726;35,8714466551714;39,4719713932454;-2,68414707213969;282;0
"283";57,9299029668371;38,0442782112341;40,3923340174492;-2,36111167882047;283;0
"284";58,0813682862526;36,5357045557462;39,4953304346518;-2,04421212470221;284;0
"285";57,9188569216007;35,5854205178164;40,3848227066885;-2,14443909322017;285;0
"286";58,0319397487099;35,6700393041607;39,4617190291228;-2,14250201292994;286;0
"287";57,9153477346836;35,0360278586999;40,3824364595849;0,117148782581083;287;0
"288";57,9754236820871;36,2256393436246;40,4232881038192;-1,31168757341872;288;1
"289";57,8447140988895;35,6945547834887;40,3344055872448;-1,84425227200185;289;0
"290";58,0128434032926;34,1031272089626;39,448733514239;-0,555855411464961;290;0
"291";58,0985443389405;34,8338151488089;39,5070101504795;-1,08050753405801;291;0
"292";58,0183247523067;36,8293388670215;39,4524608315686;-2,4509083291946;292;0
"293";57,823377078657;37,2294870754262;40,3198964134867;-1,67675759685856;293;0
"294";57,9379466303384;35,6960503818664;41,3978037086301;-0,649655877487945;294;1
"295";58,1656043036999;34,8878162932552;40,5526109265159;0,632608925500961;295;1
"296";58,1809805385584;34,8577798763004;41,5630667662197;0,255164711851066;296;1
"297";57,8824963231988;33,7398149650097;39,3600974997752;-0,312885308451179;297;0
"298";57,9633296741172;35,2755177720071;40,4150641783997;-1,21143417041364;298;0
"299";58,0353625448927;35,7142297446067;40,4640465305271;-2,96665986349769;299;1
"300";58,0319156220868;34,393613816887;40,461702623019;-1,96968379071318;300;1
"301";57,9420043010981;36,7631949427183;40,4005629247467;-1,40119640299482;301;0
"302";57,9046721298053;36,7027358406128;41,3751770482676;-0,673549888031424;302;1
"303";57,9820571413054;35,0264800112892;40,4277988560877;-1,15002028961406;303;1
"304";58,1009808214944;36,1442339788399;39,5086669586162;-1,22126663175713;304;0
"305";58,0023626614921;36,5664818512283;40,4416066098147;0,6169691362946;305;1
"306";57,9350971780416;33,839016612853;41,3958660810683;-0,794056435631042;306;1
"307";57,9495625777952;37,1933024386789;40,4057025529007;-1,47079264555381;307;0
"308";58,1614391495458;36,7752940861431;39,5497786216912;-1,74376683619561;308;0
"309";57,9553040188744;35,9635282087253;40,4096067328346;-1,09830443560397;309;0
"310";58,0763176761113;35,9699611540658;40,4918960197557;-2,07835883784711;310;1
"311";58,1471718686186;34,0810106295569;40,5400768706606;0,0613586749405144;311;1
"312";58,0443664903687;35,2532404285055;40,4701692134508;-1,53371225940779;312;1
"313";57,957827812993;36,3500442391377;41,4113229128352;-1,72367083314338;313;1
"314";57,9959998373794;34,352258164109;40,437279889418;-2,09065282731082;314;1
"315";57,9507720031772;34,6315204283313;40,4065249621605;-0,255062409473886;315;0
"316";58,1227717117313;37,8140242009762;40,5234847639773;-2,56970263294366;316;1
"317";57,9850446434756;35,4387147254784;40,4298303575634;-1,67991617858981;317;1
"318";58,1549983383982;38,1999436117632;41,5453988701108;-0,99893274631529;318;1
"319";57,9438387464619;35,8793307222271;40,4018103475941;-1,29518716205602;319;0
"320";57,9352882749368;35,8064542960474;40,395996026957;-0,931029664879659;320;0
"321";58,014313215905;36,4493848364153;39,4497329868154;-2,5446381915902;321;0
"322";58,0024188647991;36,0259256862036;41,4416448280634;-1,65150257939885;322;1
"323";57,9495548475419;36,1658369178038;40,4056972963285;-2,89434705763586;323;0
"324";57,841860319007;35,8761302666286;40,3324650169247;-1,96883495342856;324;0
"325";58,0030066421255;36,9639939112275;40,4420445166454;-0,0735233235453379;325;1
"326";57,9283423300929;36,1144244066843;40,3912727844632;-0,924890438845608;326;0
"327";58,1082610955476;35,0812612339463;39,5136175449724;-1,19858686024857;327;0
"328";57,9047314545061;34,5174472735226;39,3752173890641;-2,09741768867978;328;0
"329";58,1126482729009;35,496781212335;39,5166008255726;-1,84328208717118;329;0
"330";57,9350956982621;36,8860892208106;40,3958650748182;-2,1980767813954;330;0
"331";58,0292470078407;34,763840649132;39,4598879653317;-1,18373048480485;331;0
"332";58,0898702724403;34,6228534392781;40,5011117852594;-0,507889854592499;332;1
"333";57,9481257643208;33,9500949645076;39,4047255197382;-0,890199385567776;333;0
"334";58,0554438552345;36,1310022671068;40,4777018215595;-1,87032762280156;334;1
"335";57,9912026328816;35,1178280044909;39,4340177903595;-0,662022239825816;335;0
"336";57,8864787070592;36,5349342167662;40,3628055208003;-0,765113938295976;336;0
"337";57,9729920389;34,8007600844768;41,421634586452;-0,360854360700642;337;1
"338";58,1619789877535;35,5346371488383;40,5501457116724;-1,75619518911115;338;1
"339";57,9785868826303;33,808687067786;39,4254390801886;-2,38673163400462;339;0
"340";57,9182217537075;36,0013625733893;40,3843907925211;-1,25631990004625;340;0
"341";57,9945977075918;37,2122770178708;41,4363264411624;-0,914034952426569;341;1
"342";58,0330141609858;35,9934736263926;41,4624496294703;0,319615376142735;342;1
"343";58,0955324614657;37,2706294137055;40,5049620737967;-1,34602667957002;343;1
"344";58,1143959877792;36,3293657954171;40,5177892716899;-0,860454218321955;344;1
"345";58,0100522398375;34,6061991667424;39,4468355230895;-1,30919401978031;345;0
"346";58,1164575245657;36,884991114147;41,5191911167047;0,867687801268033;346;1
"347";57,9235740052201;35,4433302681262;40,3880303235497;0,163059396302515;347;0
"348";57,765548659531;36,4246001333373;40,2805730884811;-1,31397815651852;348;0
"349";57,952831657447;35,0276790509726;40,407925527064;-1,31957476784115;349;0
"350";57,9484144510493;35,6295997758176;40,4049218267135;-1,21124993039081;350;0
"351";57,7683963848497;34,409621659235;40,2825095416978;-0,970099782676762;351;0
"352";58,056247175697;37,026011039761;41,4782480794739;-1,81828124415367;352;1
"353";57,9216224860578;37,1551556457454;40,3867032905193;-1,09305687952958;353;0
"354";57,9773946013772;35,8722126362092;40,4246283289365;-1,90243422140148;354;1
"355";57,8412897012346;37,3044350026036;41,3320769968395;-2,22256305668039;355;1
"356";58,0547524201868;36,2383749427889;40,477231645727;-0,447863370155709;356;1
"357";58,1891227017355;34,081013720512;40,5686034371802;-0,674938274089264;357;1
"358";57,9121922889776;34,8210836773756;40,3802907565048;-1,73622412784132;358;0
"359";57,9887441088955;33,3922711778748;39,432345994049;0,0594268172397818;359;0
"360";58,1948713064976;36,5097376323486;40,5725124884184;-1,52751798659055;360;1
"361";58,0933816332208;36,2552176051434;40,5034995105901;-1,55876038218907;361;1
"362";58,1913059421697;37,9319371001002;40,5700880406754;-2,28654221881938;362;1
"363";57,9994765942068;33,9122196424305;39,4396440840606;-1,24404183661618;363;0
"364";57,9847739951078;34,7652964845244;39,4296463166733;-1,34800262197115;364;0
"365";57,9490368342821;34,501695588744;41,4053450473118;-1,12241334110534;365;1
"366";58,1434573703426;36,5995129984652;39,537551011833;-0,859471488670167;366;0
"367";57,8714161467667;35,5289747521474;39,3525629798014;-0,237535138346345;367;0
"368";58,0307314215255;34,312453251575;39,4608973666373;-0,910720972239474;368;0
"369";57,9953681466723;34,2494879540022;39,4368503397371;-0,224705579784541;369;0
"370";58,2251841800127;35,3089070139299;40,5931252424086;-0,287458092180401;370;1
"371";57,939196627139;39,4985089639457;40,3986537064545;-4,1146080653926;371;0
"372";57,8490711830149;36,822591289649;41,3373684044501;-1,49372574096654;372;1
"373";58,0232631769509;35,9867265018191;40,4558189603266;-0,663792736308444;373;1
"374";57,9960351303949;38,0931657616484;41,4373038886685;-2,33729619923802;374;1
"375";57,9160874932495;36,3511031981571;39,3829394954096;-2,13114197962128;375;0
"376";58,0132291088244;34,8602205364739;41,4489957940006;-0,954068702294194;376;1
"377";57,9724475253294;36,9050898919656;40,421264317224;-1,64516732858451;377;1
"378";57,9321241358732;36,0172816089949;40,3938444123938;-2,9114410578437;378;0
"379";58,0500835931776;34,5746032843894;39,4740568433608;-0,343694475998397;379;0
"380";57,9668337687993;34,4838167354629;40,4174469627835;-2,04127156509837;380;0
"381";57,8165019749227;35,7171703126528;40,3152213429475;-0,725388310278454;381;0
"382";57,7348258751627;35,1877165843694;41,2596815951107;-0,651117151888997;382;1
"383";57,9419417827916;33,5020729448498;41,4005204122983;0,335522991195326;383;1
"384";58,1454186870871;35,0265975987261;41,5388847072192;-1,10923278992058;384;1
"385";58,0838129379965;34,1473509935284;40,4969927978376;-0,603839280581134;385;1
"386";58,1215053580446;35,0733692341541;39,5226236434703;-0,151097068998205;386;0
"387";58,0982505442733;37,3468851035757;41,5068103701058;-1,68434894916882;387;1
"388";58,0315764024018;36,8883626383929;39,4614719536333;-2,89419143110637;388;0
"389";57,8492937372284;35,1538914665475;40,3375197413153;-0,988153268473631;389;0
"390";58,0205569787166;35,276803896129;40,4539787455273;0,0937856908660137;390;1
"391";58,1597228090344;36,5734370500292;39,5486115101434;-2,72051411796983;391;0
"392";57,6603936465426;34,8827391421408;40,2090676796489;-0,00750063646496102;392;0
"393";57,9218647715698;35,5524904379605;41,3868680446675;-1,234031058184;393;1
"394";58,1102464640752;36,2977136336857;39,5149675955711;-1,18556398952409;394;0
"395";58,0528745019445;37,847523445007;40,4759546613223;-1,60041775365314;395;1
"396";58,0789394403515;37,3488966289386;40,493678819439;-0,229720990217039;396;1
"397";58,0457099505856;36,7283644001365;41,4710827663982;0,17718760829613;397;1
"398";58,0538833115658;34,0035687135824;39,4766406518648;0,319057637562352;398;0
"399";58,0014643122411;37,1748860022944;41,440995732324;-2,18826467728954;399;1
"400";57,9083510864297;35,8254432934742;41,3776787387722;-0,406641296650726;400;1
"401";57,8773184909232;35,7752616551142;40,3565765738278;-1,52380756410285;401;0
"402";58,003615286813;36,4831406365743;40,4424583950329;-2,20554243313488;402;1
"403";57,9578606886429;34,4354888537957;41,4113452682771;-0,805242705196072;403;1
"404";57,9100635591537;36,6332055367591;41,3788432202245;-1,18488821364894;404;1
"405";58,0417441317487;35,6860157373376;40,4683860095891;-0,452904432641667;405;1
"406";58,0153444736864;34,6260617345401;41,4504342421068;0,563344636162043;406;1
"407";58,1463283045193;32,8535231508017;39,5395032470731;-0,269616814730071;407;0
"408";57,8878497502674;35,8889505466041;40,3637378301819;-1,84951696821818;408;0
"409";57,9482211916945;37,44967517034;40,4047904103523;-1,04982783813044;409;0
"410";57,9925052911661;34,9252441784577;39,434903597993;0,197667372104519;410;0
"411";57,8592209918561;34,068237251016;40,3442702744621;0,0374972111005505;411;0
"412";57,971529413189;36,8996632563212;40,4206400009685;-2,78798393644577;412;1
"413";57,9291828821787;35,0862108527637;40,3918443598815;-0,23178797985161;413;0
"414";57,7852360998862;34,2723719908053;40,2939605479227;-1,43380338405156;414;0
"415";57,9716162839389;34,6217391646191;39,4206990730784;-1,82861629822764;415;0
"416";57,9465927836024;38,3031945929492;41,4036830928496;-2,28969197130812;416;1
"417";58,1133010194154;35,834618682727;41,5170446932025;-1,59864306152861;417;1
"418";57,9395931077152;33,8920576324626;39,3989233132464;-0,495703428168348;418;0
"419";58,0557511595593;33,5327874821272;39,4779107885003;0,182378693727401;419;0
"420";58,0142629293255;36,2842076021525;39,4496987919414;-1,08950803010183;420;0
"421";57,8763139785155;36,4353878496431;41,3558935053905;-1,22007763374586;421;1
"422";58,0374143972503;36,6273339147446;40,4654417901302;-1,44441043248948;422;1
"423";57,9893913876534;36,8527695163882;41,4327861436043;-0,259941582973312;423;1
"424";58,0166061986509;36,2278655239007;40,4512922150826;-2,31099110464607;424;1
"425";58,0658034848342;34,6850981514457;40,4847463696873;-1,00880535150088;425;1
"426";58,0113962919971;35,4485605242904;40,4477494785581;-0,205101831706486;426;1
"427";58,1585159164031;35,027288424122;40,5477908231541;-0,251672879544188;427;1
"428";58,0115553440443;37,1024083342032;40,4478576339502;-0,809747442913398;428;1
"429";57,8746000960716;36,0110205587861;40,3547280653287;-2,30838020805225;429;0
"430";58,0741864779301;36,1853649071246;40,4904468049925;-2,08485475179341;430;1
"431";57,8777098385;36,1581271122731;39,35684269018;-1,86833706243041;431;0
"432";57,8081105868238;36,7643794802874;41,3095151990402;-2,55005721492301;432;1
"433";57,9190063610079;35,015572278929;39,3849243254854;-1,13219341855125;433;0
"434";57,9255322771215;34,7907572728238;39,3893619484426;0,0468826404651423;434;0
"435";57,9392494077307;36,9941393576849;40,3986895972569;-3,63085106719081;435;0
"436";58,1606759566065;33,5873125982923;39,5492596504924;-0,556410922416312;436;0
"437";58,1635599446284;36,4997679848832;40,5512207623473;-1,51916202145424;437;1
"438";58,0726091096698;36,9619931373764;41,4893741945755;-2,03197322190022;438;1
"439";57,8726165074957;34,0719266656784;41,3533792250971;-0,374834928011829;439;1
"440";58,0023146555433;34,9949842638745;39,4415739657695;-0,572980487931027;440;0
"441";58,0487121233826;35,2469255088428;39,4731242439002;-1,1525227741769;441;0
"442";57,986297249673;34,8000427910452;40,4306821297777;-2,13155873047646;442;1
"443";58,0171745482456;35,8454765763282;40,451678692807;-1,93499476070281;443;1
"444";57,90552060851;37,4503029767266;41,3757540137868;-2,78149122129848;444;1
"445";57,8712379693994;34,8340498465324;41,3524418191916;0,736863506421344;445;1
"446";58,1407765738751;36,6886674037353;40,5357280702351;-1,45865253943392;446;1
"447";58,0267372689053;34,8352118387314;40,4581813428556;-1,99028873743538;447;1
"448";57,9591602357854;36,2820657161377;40,4122289603341;-3,35685698328296;448;0
"449";58,0325271219917;35,7618401507394;40,4621184429544;-1,6686526822755;449;1
"450";58,2062480973119;37,8877133836596;40,5802487061721;-1,89081428205364;450;1
"451";58,0362666955664;36,6727211034737;40,4646613529852;-2,6437132332685;451;1
"452";58,1411404644704;33,5155016564403;40,5359755158399;1,08069894908716;452;1
"453";58,1367544314575;37,0236809786845;40,5329930133911;-0,427740763581468;453;1
"454";57,9592823852878;36,6113621745615;40,4123120219957;-2,73164249449407;454;0
"455";58,0762541730886;35,8181083433226;40,4918528377002;-0,131014710737567;455;1
"456";57,9348799176968;36,3165999094347;40,3957183440338;-0,136738990822813;456;0
"457";57,8526344220532;35,8168135705769;40,3397914069962;-0,543223620265763;457;0
"458";57,8798334203595;36,0722239015634;39,3582867258445;-0,749997983117233;458;0
"459";57,985127952187;35,0161446677999;40,4298870074872;-1,06627630713518;459;1
"460";58,1797062428552;37,2824608883354;40,5622002451416;-0,706865465676842;460;1
"461";58,0104808717856;35,5289045577751;41,4471269928142;-2,2588028204516;461;1
"462";57,9197162026649;36,0531072395608;41,3854070178121;-1,82198869784794;462;1
"463";58,0230374964164;36,7573860393266;41,4556654975631;-2,23559938107804;463;1
"464";58,0697975193218;37,0923788987754;41,4874623131388;-1,42706149638837;464;1
"465";57,8704798268054;36,0091177610125;41,3519262822277;-0,996926802698773;465;1
"466";57,8945319782022;36,0204726680149;40,3682817451775;-0,555717342996566;466;0
"467";57,8058392510325;35,8233720545878;40,3079706907021;-0,576389632616348;467;0
"468";57,8730439406996;35,565345467796;40,3536698796757;0,300599915748585;468;0
"469";57,9112561189184;36,9379003189655;40,3796541608645;-0,570331822732925;469;0
"470";57,9708084237297;32,8887025808723;39,4201497281362;0,0535399512890535;470;0
"471";58,1410094052973;36,3175910782015;40,5358863956022;-0,2057535063202;471;1
"472";58,0888641430264;36,0972286358146;40,5004276172579;-1,86089025748455;472;1
"473";58,027297431969;35,4399996553448;41,4585622537389;-0,484804203354919;473;1
"474";57,9433358533974;34,5779351365927;41,4014683803102;-0,733053812486865;474;1
"475";57,9959793062563;34,9840537530218;40,4372659282543;-1,09844955652235;475;1
"476";58,0547612245301;35,4508561377349;39,4772376326805;-2,15569683077798;476;0
"477";57,9495966678394;33,5556577271507;40,4057257341308;-0,602279577330968;477;0
"478";58,1059070129559;34,827156817368;39,51201676881;-1,21875638941271;478;0
"479";58,1097453566436;36,7444540620082;40,5146268425176;-1,63958561535649;479;1
"480";57,8833495370374;33,927426879848;40,3606776851855;-0,22868048243329;480;0
"481";57,9253088689914;35,994408746154;41,3892100309141;-0,183606864109365;481;1
"482";58,1206738733339;34,9054624081157;41,5220582338671;-0,417633683473511;482;1
"483";57,8312780119457;37,3528690898426;40,3252690481231;-3,73149748815526;483;0
"484";58,0419709894906;37,4098214275859;40,4685402728536;-2,14207971650952;484;1
"485";58,0233498761639;33,9425233997723;41,4558779157914;-0,296541108332072;485;1
"486";58,3195901197857;38,9760805702505;40,6573212814543;-2,15389450547457;486;1
"487";57,7270319658773;33,4604252141292;39,2543817367966;-0,650409230125064;487;0
"488";57,9159204198576;35,8811465456617;39,3828258855032;-0,987480375073218;488;0
"489";58,067402866865;36,5740422788157;39,4858339494682;-0,152365400267549;489;0
"490";58,1674326509671;36,3465511235033;41,5538542026577;-2,02915693445024;490;1
"491";58,083968708384;35,3485095194041;40,4970987217012;-1,32734390730732;491;1
"492";57,8571631564445;35,807295458897;39,3428709463822;-0,790802845589589;492;0
"493";58,2239388169168;35,2745394741682;41,5922783955034;-0,0794694545119086;493;1
"494";57,8242733775898;34,9079062061153;40,3205058967611;-1,29370212802004;494;0
"495";57,8886983912095;37,2095583204405;40,3643149060225;-0,863926053835343;495;0
"496";57,9956859609387;38,5203454766326;40,4370664534383;-2,56030292295773;496;1
"497";58,2225586908907;35,4867135173059;40,5913399098056;-0,718259597687322;497;1
"498";58,0506316587338;38,1082885994867;40,474429527939;-1,04305297256987;498;1
"499";58,0730396051436;38,2586726186122;41,4896669314976;-0,623786024524179;499;1
"500";58,1728077594737;37,0377907992502;41,5575092764421;-1,73262714305739;500;1
